<svg width="1280" height="812" viewBox="0 0 1280 812" fill="none" xmlns="http://www.w3.org/2000/svg">
<path d="M1279 812V498C1279 498 1079.68 544.807 1195.25 589.665C1310.82 634.522 1150.03 727.22 1079.68 741.873C1009.33 756.527 1011 812 1011 812H1279Z" fill="url(#paint0_linear)"/>
<path d="M1279.51 0.396535H1060.14C1055.23 -6.56259 1067.77 14.7497 1067.77 14.7497C1067.77 14.7497 1090.84 55.1996 1121 23.8836C1164.45 -21.2336 1281 246.949 1281 132.192C1281 119.726 1279.51 0.396535 1279.51 0.396535Z" fill="url(#paint1_linear)"/>
<path d="M1281 812V418C1281 418 1043 476.733 1181 533.019C1319 589.304 1127 705.62 1043 724.007C959.005 742.393 961.004 812 961.004 812H1281Z" fill="url(#paint2_linear)"/>
<path d="M228.701 543.775C186.406 446.866 15 469.23 15 469.23V814H270.996C270.996 814 346.681 776.727 257.639 728.273C168.597 679.819 270.996 640.683 228.701 543.775Z" fill="url(#paint3_linear)"/>
<path d="M1280.5 0.0700265H999.459C993.171 -5.26206 1009.24 11.0675 1009.24 11.0675C1009.24 11.0675 1038.79 42.0602 1077.43 18.0658C1133.09 -16.503 1282.41 188.978 1282.41 101.052C1282.41 91.5 1280.5 0.0700265 1280.5 0.0700265Z" fill="url(#paint4_linear)"/>
<path d="M192 522.393C154 418.393 0 442.393 0 442.393V812.393H230C230 812.393 298 772.393 218 720.393C138 668.393 230 626.393 192 522.393Z" fill="url(#paint5_linear)"/>
<defs>
<linearGradient id="paint0_linear" x1="1145" y1="498" x2="1145" y2="812" gradientUnits="userSpaceOnUse">
<stop stop-color="#FF854B"/>
<stop offset="1" stop-color="#724FE1"/>
</linearGradient>
<linearGradient id="paint1_linear" x1="1170" y1="-1" x2="1170" y2="161" gradientUnits="userSpaceOnUse">
<stop stop-color="#FF9F3E"/>
<stop offset="1" stop-color="#674DE5"/>
</linearGradient>
<linearGradient id="paint2_linear" x1="1122.42" y1="418" x2="1122.42" y2="812" gradientUnits="userSpaceOnUse">
<stop stop-color="#F45293"/>
<stop offset="1" stop-color="#4462C9"/>
</linearGradient>
<linearGradient id="paint3_linear" x1="158" y1="467" x2="158" y2="814" gradientUnits="userSpaceOnUse">
<stop stop-color="#FF8A44"/>
<stop offset="1" stop-color="#FC5581"/>
</linearGradient>
<linearGradient id="paint4_linear" x1="1141.47" y1="-1.00001" x2="1141.47" y2="123.125" gradientUnits="userSpaceOnUse">
<stop stop-color="#F45293"/>
<stop offset="1" stop-color="#4462C9"/>
</linearGradient>
<linearGradient id="paint5_linear" x1="129.616" y1="440" x2="129.616" y2="812.393" gradientUnits="userSpaceOnUse">
<stop stop-color="#F45293"/>
<stop offset="1" stop-color="#4462C9"/>
</linearGradient>
</defs>
</svg>
