<svg width="42" height="43" viewBox="0 0 42 43" fill="none" xmlns="http://www.w3.org/2000/svg">
<g clip-path="url(#clip0)">
<path d="M18.4638 31.0604H22.5028V21.2858H25.1967L25.554 17.9181H22.5028L22.5064 16.2313C22.5064 15.353 22.5906 14.8825 23.8503 14.8825H25.5348V11.5137H22.8397C19.6032 11.5137 18.4638 13.1476 18.4638 15.8956V17.9181H16.446V21.287H18.4638V31.0604Z" fill="url(#paint0_linear)"/>
<path d="M21 3.23955C30.9514 3.23955 39.0475 11.3357 39.0475 21.2871C39.0475 31.2385 30.9514 39.3346 21 39.3346C11.0486 39.3346 2.95244 31.2385 2.95244 21.2871C2.95244 11.3357 11.0486 3.23955 21 3.23955ZM21 2.03638C10.3676 2.03638 1.74927 10.6547 1.74927 21.2871C1.74927 31.9195 10.3676 40.5378 21 40.5378C31.6324 40.5378 40.2507 31.9195 40.2507 21.2871C40.2507 10.6547 31.6324 2.03638 21 2.03638Z" fill="url(#paint1_linear)"/>
</g>
<defs>
<linearGradient id="paint0_linear" x1="21.0403" y1="11.5137" x2="21.0403" y2="31.0604" gradientUnits="userSpaceOnUse">
<stop stop-color="#F45293"/>
<stop offset="1" stop-color="#4462C9"/>
</linearGradient>
<linearGradient id="paint1_linear" x1="21.1703" y1="2.03637" x2="21.1703" y2="40.5378" gradientUnits="userSpaceOnUse">
<stop stop-color="#F45293"/>
<stop offset="1" stop-color="#4462C9"/>
</linearGradient>
<clipPath id="clip0">
<rect width="38.5014" height="38.5014" fill="white" transform="translate(1.74927 2.03638)"/>
</clipPath>
</defs>
</svg>
