<svg width="42" height="43" viewBox="0 0 42 43" fill="none" xmlns="http://www.w3.org/2000/svg">
<g clip-path="url(#clip0)">
<path d="M28.0673 11.8626H13.9325C13.6216 11.8576 13.3128 11.9151 13.0246 12.0318C12.7363 12.1484 12.4745 12.3219 12.2546 12.5417C12.0347 12.7616 11.8613 13.0235 11.7446 13.3117C11.628 13.5999 11.5705 13.9087 11.5755 14.2196V28.3557C11.5755 29.6852 12.6006 30.7127 13.9325 30.7127H28.0685C28.3794 30.7175 28.6881 30.6599 28.9763 30.5432C29.2644 30.4265 29.5262 30.253 29.7461 30.0332C29.9659 29.8133 30.1393 29.5515 30.2561 29.2634C30.3728 28.9752 30.4304 28.6665 30.4256 28.3557V14.2196C30.4303 13.9087 30.3725 13.6 30.2556 13.3118C30.1388 13.0236 29.9652 12.7619 29.7453 12.542C29.5253 12.3222 29.2635 12.1488 28.9752 12.0321C28.687 11.9154 28.3783 11.8577 28.0673 11.8626ZM21.0144 17.5849C23.1043 17.5849 24.7983 19.226 24.7983 21.2521C24.7983 23.2759 23.1043 24.9194 21.0144 24.9194C18.9257 24.9194 17.2316 23.2771 17.2316 21.2521C17.2316 19.226 18.9257 17.5849 21.0144 17.5849ZM28.0673 27.7661C28.0673 28.18 27.8905 28.3557 27.4778 28.3557H14.5197C14.107 28.3557 13.9301 28.18 13.9301 27.7661V19.5196L15.398 19.8384C15.2367 20.3623 15.1548 20.9074 15.1549 21.4555C15.1549 24.5885 17.779 27.1296 21.012 27.1296C24.2461 27.1296 26.869 24.5885 26.869 21.4555C26.869 20.8936 26.7836 20.351 26.6259 19.8384L28.0661 19.5196V27.7661H28.0673ZM28.0673 17.165C28.0673 17.3213 28.0052 17.4713 27.8947 17.5819C27.7841 17.6924 27.6341 17.7545 27.4778 17.7545H25.1208C24.9644 17.7545 24.8145 17.6924 24.7039 17.5819C24.5933 17.4713 24.5312 17.3213 24.5312 17.165V14.808C24.5312 14.6516 24.5933 14.5017 24.7039 14.3911C24.8145 14.2805 24.9644 14.2184 25.1208 14.2184H27.4778C27.6341 14.2184 27.7841 14.2805 27.8947 14.3911C28.0052 14.5017 28.0673 14.6516 28.0673 14.808V17.165Z" fill="url(#paint0_linear)"/>
<path d="M21 3.23955C30.9514 3.23955 39.0475 11.3357 39.0475 21.2871C39.0475 31.2385 30.9514 39.3346 21 39.3346C11.0486 39.3346 2.95244 31.2385 2.95244 21.2871C2.95244 11.3357 11.0486 3.23955 21 3.23955ZM21 2.03638C10.3676 2.03638 1.74927 10.6559 1.74927 21.2871C1.74927 31.9183 10.3676 40.5378 21 40.5378C31.6324 40.5378 40.2507 31.9195 40.2507 21.2871C40.2507 10.6547 31.6324 2.03638 21 2.03638Z" fill="url(#paint1_linear)"/>
</g>
<defs>
<linearGradient id="paint0_linear" x1="21.0839" y1="11.8623" x2="21.0839" y2="30.713" gradientUnits="userSpaceOnUse">
<stop stop-color="#F45293"/>
<stop offset="1" stop-color="#4462C9"/>
</linearGradient>
<linearGradient id="paint1_linear" x1="21.1703" y1="2.03637" x2="21.1703" y2="40.5378" gradientUnits="userSpaceOnUse">
<stop stop-color="#F45293"/>
<stop offset="1" stop-color="#4462C9"/>
</linearGradient>
<clipPath id="clip0">
<rect width="38.5014" height="38.5014" fill="white" transform="translate(1.74927 2.03638)"/>
</clipPath>
</defs>
</svg>
