<svg width="42" height="43" viewBox="0 0 42 43" fill="none" xmlns="http://www.w3.org/2000/svg">
<g clip-path="url(#clip0)">
<path d="M23.4232 13.5436C21.6918 14.1729 20.5981 15.7983 20.7233 17.5754L20.7654 18.2612L20.0724 18.177C17.5529 17.8546 15.3499 16.7633 13.4802 14.9285L12.5658 14.0189L12.33 14.6914C11.8319 16.1894 12.1507 17.7715 13.189 18.8363C13.7425 19.4247 13.6174 19.5089 12.6632 19.1588C12.3312 19.0469 12.04 18.9627 12.0123 19.0048C11.9161 19.1034 12.2482 20.3764 12.5104 20.8805C12.8702 21.5808 13.6041 22.2666 14.4078 22.6733L15.0864 22.9957L14.2839 23.0101C13.5091 23.0101 13.4814 23.0246 13.5644 23.3194C13.8412 24.2289 14.9348 25.1951 16.1536 25.6162L17.0127 25.9098L16.2655 26.3574C15.1348 27.0086 13.8583 27.3648 12.5538 27.3933C11.9293 27.4077 11.418 27.4631 11.418 27.5052C11.418 27.6447 13.1084 28.428 14.0902 28.7372C17.0392 29.6468 20.544 29.2546 23.1753 27.7013C25.0451 26.5944 26.9136 24.3974 27.7871 22.2678C28.2587 21.1344 28.7292 19.0613 28.7292 18.0687C28.7292 17.4238 28.7713 17.3408 29.5461 16.5708C30.0033 16.1232 30.4328 15.6335 30.5159 15.4927C30.6542 15.2268 30.6398 15.2268 29.9347 15.4639C28.758 15.8838 28.5908 15.8284 29.1731 15.198C29.6015 14.7504 30.1152 13.9382 30.1152 13.7C30.1152 13.6579 29.9083 13.7277 29.6712 13.854C29.4222 13.9936 28.8687 14.2041 28.4524 14.3293L27.7053 14.5675L27.0267 14.1043C26.6525 13.8528 26.1267 13.5725 25.85 13.4883C25.1413 13.2921 24.0609 13.3198 23.4232 13.5436Z" fill="url(#paint0_linear)"/>
<path d="M21 3.23955C30.9514 3.23955 39.0475 11.3357 39.0475 21.2871C39.0475 31.2385 30.9514 39.3346 21 39.3346C11.0486 39.3346 2.95244 31.2385 2.95244 21.2871C2.95244 11.3357 11.0486 3.23955 21 3.23955ZM21 2.03638C10.3676 2.03638 1.74927 10.6559 1.74927 21.2871C1.74927 31.9183 10.3676 40.5378 21 40.5378C31.6324 40.5378 40.2507 31.9183 40.2507 21.2871C40.2507 10.6559 31.6324 2.03638 21 2.03638Z" fill="url(#paint1_linear)"/>
</g>
<defs>
<linearGradient id="paint0_linear" x1="21.0861" y1="13.3569" x2="21.0861" y2="29.2201" gradientUnits="userSpaceOnUse">
<stop stop-color="#F45293"/>
<stop offset="1" stop-color="#4462C9"/>
</linearGradient>
<linearGradient id="paint1_linear" x1="21.1703" y1="2.03637" x2="21.1703" y2="40.5378" gradientUnits="userSpaceOnUse">
<stop stop-color="#F45293"/>
<stop offset="1" stop-color="#4462C9"/>
</linearGradient>
<clipPath id="clip0">
<rect width="38.5014" height="38.5014" fill="white" transform="translate(1.74927 2.03638)"/>
</clipPath>
</defs>
</svg>
