<svg width="64" height="64" viewBox="0 0 64 64" fill="none" xmlns="http://www.w3.org/2000/svg">
<g clip-path="url(#clip0)">
<path d="M9.33891 21.3433C7.1303 21.3433 5.33984 23.1337 5.33984 25.3423V44.0046C5.33984 46.2132 7.1303 48.0036 9.33891 48.0036C11.5475 48.0036 13.338 46.2132 13.338 44.0046V25.3423C13.338 23.1337 11.5475 21.3433 9.33891 21.3433Z" fill="#C4C4C4"/>
<path d="M54.6612 21.3433C52.4526 21.3433 50.6621 23.1337 50.6621 25.3423V44.0046C50.6621 46.2132 52.4526 48.0036 54.6612 48.0036C56.8698 48.0036 58.6602 46.2132 58.6602 44.0046V25.3423C58.6602 23.1337 56.8699 21.3433 54.6612 21.3433Z" fill="#C4C4C4"/>
<path d="M46.6633 21.3433H17.337C16.6008 21.3433 16.0039 21.9401 16.0039 22.6763V44.0046C16.0033 47.1723 18.2323 49.9028 21.336 50.5364V60.0008C21.336 62.2094 23.1265 63.9999 25.3351 63.9999C27.5437 63.9999 29.3342 62.2094 29.3342 60.0008V50.6696H34.6663V60.0008C34.6663 62.2094 36.4567 63.9999 38.6653 63.9999C40.874 63.9999 42.6644 62.2094 42.6644 60.0008V50.5364C45.7682 49.9028 47.9972 47.1723 47.9965 44.0046V22.6763C47.9964 21.9401 47.3995 21.3433 46.6633 21.3433Z" fill="#C4C4C4"/>
<path d="M41.6915 5.53908L44.9413 2.29184C45.4708 1.78033 45.4854 0.936529 44.9741 0.406904C44.4626 -0.122597 43.6187 -0.137219 43.0891 0.374161C43.078 0.384909 43.0671 0.395781 43.0564 0.406904L39.2706 4.19277C34.634 2.17861 29.3693 2.17861 24.7327 4.19277L20.9469 0.404279C20.4174 -0.107226 19.5735 -0.0924794 19.062 0.437022C18.5631 0.95365 18.5631 1.77258 19.062 2.28909L22.3092 5.53895C18.3505 8.15834 15.9796 12.5974 16.0041 17.3442C16.0041 18.0804 16.601 18.6772 17.3372 18.6772H46.6637C47.3999 18.6772 47.9967 18.0804 47.9967 17.3442C48.0211 12.5975 45.6501 8.15846 41.6915 5.53908Z" fill="#C4C4C4"/>
<path d="M25.335 13.3453C26.0712 13.3453 26.6681 12.7485 26.6681 12.0123C26.6681 11.276 26.0712 10.6792 25.335 10.6792C24.5988 10.6792 24.002 11.276 24.002 12.0123C24.002 12.7485 24.5988 13.3453 25.335 13.3453Z" fill="#FAFAFA"/>
<path d="M38.6651 13.3453C39.4013 13.3453 39.9982 12.7485 39.9982 12.0123C39.9982 11.276 39.4013 10.6792 38.6651 10.6792C37.9289 10.6792 37.332 11.276 37.332 12.0123C37.332 12.7485 37.9289 13.3453 38.6651 13.3453Z" fill="#FAFAFA"/>
</g>
<defs>
<clipPath id="clip0">
<rect width="64" height="64" fill="white"/>
</clipPath>
</defs>
</svg>
