<svg width="21" height="25" viewBox="0 0 21 25" fill="none" xmlns="http://www.w3.org/2000/svg">
<path d="M19.5257 17.7231C18.0345 16.2319 17.1967 14.2093 17.1967 12.1003V10.1277C17.1967 6.98992 15.0384 4.35651 12.1254 3.63019V1.62539C12.1254 0.727755 11.3977 0 10.5 0C9.60229 0 8.87459 0.727755 8.87459 1.62539V3.63013C5.96164 4.35651 3.80336 6.98986 3.80336 10.1277V12.1003C3.80336 14.2092 2.96556 16.2318 1.47433 17.723C0.818851 18.3785 0.622764 19.3643 0.977504 20.2208C1.33224 21.0772 2.16795 21.6356 3.09493 21.6356H7.13557C7.13557 23.4937 8.64189 25 10.5 25C12.3581 25 13.8644 23.4937 13.8644 21.6356H17.905C18.832 21.6356 19.6677 21.0772 20.0225 20.2208C20.3773 19.3643 20.1812 18.3786 19.5257 17.7231ZM10.5 23.3486C9.55544 23.3486 8.78706 22.5801 8.78706 21.6356H12.2129C12.2129 22.5801 11.4445 23.3486 10.5 23.3486ZM18.4967 19.5888C18.3972 19.829 18.165 19.9841 17.905 19.9841H3.09493C2.83499 19.9841 2.60273 19.8289 2.50326 19.5888C2.40378 19.3487 2.45828 19.0747 2.64209 18.8909C4.45592 17.077 5.4548 14.6654 5.4548 12.1003V10.1277C5.4548 7.34582 7.71805 5.08256 10.5 5.08256C13.2819 5.08256 15.5452 7.34582 15.5452 10.1277V12.1003C15.5452 14.6654 16.5441 17.077 18.3579 18.8909C18.5417 19.0747 18.5962 19.3486 18.4967 19.5888Z" fill="#C6C3BD"/>
</svg>
