<svg width="20" height="20" viewBox="0 0 20 20" fill="none" xmlns="http://www.w3.org/2000/svg">
<path d="M17.6283 17.0615H3.35776C2.43184 17.0615 1.67888 16.3085 1.67888 15.3826C1.67888 14.4567 2.43188 13.7037 3.35776 13.7037H5.03664C5.49999 13.7037 5.87608 13.3276 5.87608 12.8643C5.87608 12.4009 5.49999 12.0248 5.03664 12.0248H3.35776C1.50595 12.0248 0 13.5308 0 15.3826C0 17.2344 1.50595 18.7404 3.35776 18.7404H17.6283C18.0916 18.7404 18.4677 18.3643 18.4677 17.9009C18.4677 17.4376 18.0916 17.0615 17.6283 17.0615Z" fill="url(#paint0_linear)"/>
<path d="M19.0618 2.19828C17.8093 0.947522 15.7712 0.945842 14.5162 2.19828L13.2318 3.48264C13.2159 3.49608 13.1966 3.50111 13.1815 3.51623C13.1664 3.53135 13.1613 3.55065 13.1479 3.56658L8.84072 7.87374C8.01136 8.70478 7.55469 9.80949 7.55469 10.9839V12.8642C7.55469 13.3276 7.93077 13.7037 8.39413 13.7037H10.2745C11.4489 13.7037 12.5536 13.247 13.3863 12.4168L19.061 6.7422C20.3125 5.48976 20.3125 3.45073 19.0618 2.19828ZM12.2002 11.229C11.6856 11.7419 11.0014 12.0248 10.2745 12.0248H9.23357V10.9839C9.23357 10.2569 9.51645 9.57278 10.0285 9.05904L13.7833 5.30421L15.9541 7.475L12.2002 11.229ZM17.8739 5.55522L17.1411 6.28806L14.9703 4.11728L15.7023 3.3853C16.3008 2.78761 17.2754 2.78847 17.8731 3.3853C18.4708 3.9838 18.4708 4.95754 17.8739 5.55522Z" fill="url(#paint1_linear)"/>
<defs>
<linearGradient id="paint0_linear" x1="9.31557" y1="12.0248" x2="9.31558" y2="18.7404" gradientUnits="userSpaceOnUse">
<stop stop-color="#F45293"/>
<stop offset="1" stop-color="#4462C9"/>
</linearGradient>
<linearGradient id="paint1_linear" x1="13.8323" y1="1.25958" x2="13.8323" y2="13.7037" gradientUnits="userSpaceOnUse">
<stop stop-color="#F45293"/>
<stop offset="1" stop-color="#4462C9"/>
</linearGradient>
</defs>
</svg>
