<svg width="54" height="58" viewBox="0 0 54 58" fill="none" xmlns="http://www.w3.org/2000/svg">
<path d="M10.1957 4.26666V1.46666C10.1957 0.951225 10.6131 0.533325 11.129 0.533325C11.6449 0.533325 12.0624 0.951225 12.0624 1.46666V4.26666C12.0624 4.78209 11.6449 5.19999 11.129 5.19999C10.6131 5.19999 10.1957 4.78209 10.1957 4.26666ZM11.129 7.06666C10.6131 7.06666 10.1957 7.48456 10.1957 7.99999V10.8C10.1957 11.3154 10.6131 11.7333 11.129 11.7333C11.6449 11.7333 12.0624 11.3154 12.0624 10.8V7.99999C12.0624 7.48456 11.6449 7.06666 11.129 7.06666ZM6.46237 7.06666H9.26237C9.77827 7.06666 10.1957 6.64876 10.1957 6.13332C10.1957 5.61789 9.77827 5.19999 9.26237 5.19999H6.46237C5.94647 5.19999 5.52903 5.61789 5.52903 6.13332C5.52903 6.64876 5.94647 7.06666 6.46237 7.06666ZM12.9957 7.06666H15.7957C16.3116 7.06666 16.729 6.64876 16.729 6.13332C16.729 5.61789 16.3116 5.19999 15.7957 5.19999H12.9957C12.4798 5.19999 12.0624 5.61789 12.0624 6.13332C12.0624 6.64876 12.4798 7.06666 12.9957 7.06666ZM53.129 17.9234V45.6766C53.129 48.5748 50.771 50.9333 47.8727 50.9333H33.8331L35.1666 55.6H44.729C45.2449 55.6 45.6624 56.0179 45.6624 56.5333C45.6624 57.0488 45.2449 57.4667 44.729 57.4667H10.1957C9.6798 57.4667 9.26237 57.0488 9.26237 56.5333C9.26237 56.0179 9.6798 55.6 10.1957 55.6H19.7584L21.0912 50.9333H6.11867C3.22043 50.9333 0.862366 48.5748 0.862366 45.6766V17.9234C0.862366 15.0252 3.22043 12.6667 6.11867 12.6667H30.729V3.64739C30.729 2.44526 31.7072 1.46666 32.9093 1.46666H46.2823C47.4845 1.46666 48.4626 2.44503 48.4626 3.64739V12.7021C51.0839 12.9964 53.129 15.2247 53.129 17.9234ZM32.5957 31.9526C32.5957 32.1257 32.7362 32.2667 32.9093 32.2667H39.5957H46.2821C46.4552 32.2667 46.5957 32.1257 46.5957 31.9526V29.4667H39.5957H32.5957V31.9526ZM32.5957 3.64739V27.6H46.5957V3.64739C46.5957 3.47426 46.4552 3.33332 46.2821 3.33332H32.9091C32.7362 3.33332 32.5957 3.47426 32.5957 3.64739ZM2.72903 17.9234V42.5333H51.2624V17.9234C51.2624 16.256 50.0504 14.8738 48.4624 14.5928V31.9526C48.4624 33.1547 47.4842 34.1333 46.2821 34.1333H32.9091C31.7069 34.1333 30.7288 33.155 30.7288 31.9526V14.5333H6.11867C4.24943 14.5333 2.72903 16.0542 2.72903 17.9234ZM51.2624 45.6766V44.4H2.72903V45.6766C2.72903 47.5458 4.24943 49.0667 6.11867 49.0667H47.8727C49.742 49.0667 51.2624 47.5458 51.2624 45.6766ZM27.3681 45.3333C26.5799 45.3333 25.9408 45.9722 25.9408 46.7604C25.9408 47.5486 26.5799 48.1877 27.3681 48.1877C28.1563 48.1877 28.7952 47.5486 28.7952 46.7604C28.7952 45.9722 28.1563 45.3333 27.3681 45.3333ZM38.1957 30.8667C38.1957 31.6399 38.8224 32.2667 39.5957 32.2667C40.369 32.2667 40.9957 31.6399 40.9957 30.8667C40.9957 30.0934 40.369 29.4667 39.5957 29.4667C38.8224 29.4667 38.1957 30.0934 38.1957 30.8667ZM5.52903 24.8V18.2667C5.52903 17.7512 5.94647 17.3333 6.46237 17.3333H20.4624C20.9783 17.3333 21.3957 17.7512 21.3957 18.2667V24.8C21.3957 25.3154 20.9783 25.7333 20.4624 25.7333H6.46237C5.94647 25.7333 5.52903 25.3154 5.52903 24.8ZM7.3957 23.8667H19.529V19.2H7.3957V23.8667ZM5.52903 39.7333V33.2C5.52903 32.6846 5.94647 32.2667 6.46237 32.2667H13.929C14.4449 32.2667 14.8624 32.6846 14.8624 33.2V39.7333C14.8624 40.2488 14.4449 40.6667 13.929 40.6667H6.46237C5.94647 40.6667 5.52903 40.2488 5.52903 39.7333ZM7.3957 38.8H12.9957V34.1333H7.3957V38.8ZM25.129 33.2V39.7333C25.129 40.2488 24.7116 40.6667 24.1957 40.6667H16.729C16.2131 40.6667 15.7957 40.2488 15.7957 39.7333V33.2C15.7957 32.6846 16.2131 32.2667 16.729 32.2667H24.1957C24.7116 32.2667 25.129 32.6846 25.129 33.2ZM23.2624 34.1333H17.6624V38.8H23.2624V34.1333ZM6.46237 28.5333H12.9957C13.5116 28.5333 13.929 28.1154 13.929 27.6C13.929 27.0846 13.5116 26.6667 12.9957 26.6667H6.46237C5.94647 26.6667 5.52903 27.0846 5.52903 27.6C5.52903 28.1154 5.94647 28.5333 6.46237 28.5333ZM15.7957 27.6C15.7957 28.1154 16.2131 28.5333 16.729 28.5333H26.0624C26.5783 28.5333 26.9957 28.1154 26.9957 27.6C26.9957 27.0846 26.5783 26.6667 26.0624 26.6667H16.729C16.2131 26.6667 15.7957 27.0846 15.7957 27.6ZM6.46237 31.3333H20.4624C20.9783 31.3333 21.3957 30.9154 21.3957 30.4C21.3957 29.8846 20.9783 29.4667 20.4624 29.4667H6.46237C5.94647 29.4667 5.52903 29.8846 5.52903 30.4C5.52903 30.9154 5.94647 31.3333 6.46237 31.3333ZM37.947 18.3952C38.1248 18.6062 38.3863 18.728 38.6614 18.728H38.6787C38.9603 18.7226 39.2247 18.5903 39.3978 18.3684L42.6654 14.1738C42.9816 13.7668 42.9088 13.1802 42.5023 12.8636C42.0949 12.547 41.5088 12.6193 41.1924 13.0265L38.6339 16.3113L37.9057 15.445C37.5729 15.0506 36.9849 14.9993 36.5904 15.3311C36.1956 15.6629 36.1447 16.2516 36.4765 16.6464L37.947 18.3952Z" fill="url(#paint0_linear)"/>
<defs>
<linearGradient id="paint0_linear" x1="27.227" y1="0.533321" x2="27.227" y2="57.4667" gradientUnits="userSpaceOnUse">
<stop stop-color="#F45293"/>
<stop offset="1" stop-color="#4462C9"/>
</linearGradient>
</defs>
</svg>
