<svg width="30" height="30" viewBox="0 0 30 30" fill="none" xmlns="http://www.w3.org/2000/svg">
<g clip-path="url(#clip0)">
<path d="M29.2654 2.73443C28.7759 2.24489 28.1877 1.99988 27.4999 1.99988H2.5C1.81252 1.99988 1.22414 2.24489 0.734277 2.73443C0.244686 3.22413 0 3.81245 0 4.49999V21.5001C0 22.1878 0.244686 22.7761 0.734277 23.2659C1.22414 23.7554 1.81252 24 2.5 24H11.0001C11.0001 24.3957 10.9167 24.8024 10.75 25.2187C10.5834 25.6354 10.4167 25.9998 10.25 26.3122C10.0836 26.625 10.0002 26.8539 10.0002 26.9996C10.0002 27.2704 10.0991 27.5053 10.2971 27.7027C10.4949 27.9009 10.7293 28.0001 11.0001 28.0001H19.0001C19.271 28.0001 19.5054 27.9009 19.7033 27.7027C19.9014 27.5053 20.0003 27.2705 20.0003 26.9996C20.0003 26.8645 19.9168 26.6378 19.7501 26.3202C19.5834 26.0027 19.4167 25.6325 19.2502 25.211C19.0835 24.7891 19.0002 24.3854 19.0002 24H27.5003C28.1877 24 28.776 23.7554 29.2655 23.2659C29.7553 22.7761 30.0001 22.1879 30.0001 21.5001V4.49999C30.0002 3.81245 29.7552 3.22413 29.2654 2.73443ZM28 17.5C28 17.6355 27.9506 17.7525 27.8516 17.8516C27.7526 17.9503 27.6353 17.9997 27.4999 17.9997H2.5C2.36466 17.9997 2.24743 17.9503 2.14849 17.8516C2.04959 17.7522 2.00007 17.6355 2.00007 17.5V4.49999C2.00007 4.36454 2.04943 4.24742 2.14849 4.14847C2.24749 4.04969 2.36471 4.00005 2.5 4.00005H27.5003C27.6355 4.00005 27.7529 4.04953 27.8516 4.14847C27.9506 4.24748 28 4.36459 28 4.49999V17.5Z" fill="#E1E0E0"/>
</g>
<defs>
<clipPath id="clip0">
<rect width="30" height="30" fill="white"/>
</clipPath>
</defs>
</svg>
