<svg width="21" height="20" viewBox="0 0 21 20" fill="none" xmlns="http://www.w3.org/2000/svg">
<g clip-path="url(#clip0)">
<path d="M5.07329 12.0863L4.37712 14.6852L1.83263 14.739C1.0722 13.3286 0.640869 11.7149 0.640869 10C0.640869 8.34179 1.04415 6.77804 1.75899 5.40112H1.75954L4.02485 5.81644L5.0172 8.06815C4.8095 8.67366 4.6963 9.32366 4.6963 10C4.69638 10.7341 4.82935 11.4374 5.07329 12.0863Z" fill="#FBBB00"/>
<path d="M20.4661 8.13184C20.581 8.73676 20.6409 9.36148 20.6409 9.99996C20.6409 10.7159 20.5656 11.4143 20.4222 12.0879C19.9354 14.3802 18.6634 16.3818 16.9013 17.7983L16.9008 17.7978L14.0475 17.6522L13.6437 15.1313C14.8129 14.4456 15.7267 13.3725 16.208 12.0879H10.8607V8.13184H16.286H20.4661Z" fill="#518EF8"/>
<path d="M16.9008 17.7978L16.9013 17.7984C15.1876 19.1758 13.0107 20 10.6409 20C6.83264 20 3.52167 17.8715 1.83264 14.739L5.07331 12.0863C5.9178 14.3401 8.09198 15.9445 10.6409 15.9445C11.7365 15.9445 12.7629 15.6484 13.6436 15.1313L16.9008 17.7978Z" fill="#28B446"/>
<path d="M17.0239 2.30219L13.7843 4.95437C12.8728 4.38461 11.7953 4.05547 10.6409 4.05547C8.03431 4.05547 5.81946 5.73348 5.01728 8.06812L1.75958 5.40109H1.75903C3.42333 2.1923 6.77606 0 10.6409 0C13.0673 0 15.292 0.864297 17.0239 2.30219Z" fill="#F14336"/>
</g>
<defs>
<clipPath id="clip0">
<rect width="20" height="20" fill="white" transform="translate(0.640869)"/>
</clipPath>
</defs>
</svg>
