<svg width="26" height="26" viewBox="0 0 26 26" fill="none" xmlns="http://www.w3.org/2000/svg">
<path d="M14.221 20.0009C14.4837 19.414 14.9704 18.9964 15.5354 18.8026L15.5364 18.7997C15.7235 18.2849 15.9296 17.7461 16.1501 17.1937C15.0193 16.9234 14.1033 16.9881 13.4221 17.3882C12.5437 17.9041 12.2893 18.8578 12.2323 19.1378C12.0421 20.0713 11.1548 20.706 10.2304 20.4886C9.69603 20.3629 9.18389 20.1903 8.69614 19.972C6.98608 19.2067 5.53272 17.8547 4.64034 16.0517C3.51751 13.7831 3.45546 11.1808 4.47018 8.91198C6.39329 4.61177 11.7027 2.77759 15.5452 4.66559C17.6446 5.69717 19.0917 7.60646 19.896 9.35515C19.9835 9.20506 20.0699 9.05946 20.155 8.91887C20.6012 8.18188 20.9927 7.61454 21.3184 7.23255C21.5427 6.96952 22.068 6.35361 22.6565 6.61703C23.2451 6.88045 23.1357 7.6825 23.089 8.02498C23.0212 8.52241 22.8588 9.19229 22.6066 10.0161C22.0996 11.6716 21.2783 13.7945 20.294 15.9938C19.651 17.4307 18.9667 18.831 18.3152 20.0433L18.3137 20.0461C18.5456 20.5965 18.5585 21.2377 18.2958 21.8246L17.8247 22.8773C17.5775 23.4295 17.8508 24.1117 18.4214 24.3671L17.9655 25.3858L15.8941 24.4588C14.2116 23.7057 13.4621 21.6965 14.221 20.0009ZM15.053 5.6673C11.8238 4.08068 7.17538 5.59673 5.48899 9.36758C4.61064 11.3316 4.6659 13.5874 5.64056 15.5566C6.60379 17.5027 8.36997 18.9044 10.4859 19.4021C10.7939 19.4746 11.0745 19.2301 11.1387 18.915C11.2417 18.4095 11.6153 17.1551 12.8569 16.4258C13.831 15.8536 15.0809 15.7615 16.5774 16.1501C16.7889 15.6459 17.255 14.5881 17.2635 14.5691C16.9615 14.7116 16.6241 14.7604 16.2873 14.7064C15.3738 14.5599 14.7536 13.6977 14.8994 12.7883C15.0456 11.8768 15.9061 11.2542 16.8175 11.4004C17.502 11.5102 18.009 12.014 18.171 12.6242C18.5175 11.9108 18.863 11.2323 19.1995 10.6042C18.5919 8.87064 17.2118 6.72808 15.053 5.6673ZM17.1034 13.1417C17.1522 12.8372 16.9453 12.5512 16.6408 12.5023C16.337 12.4536 16.0501 12.6611 16.0014 12.9649C15.9527 13.2688 16.1603 13.5557 16.4641 13.6043C16.7685 13.6532 17.0545 13.4463 17.1034 13.1417ZM21.3951 10.1463C21.6741 9.28711 21.8287 8.68928 21.9131 8.27812C21.6627 8.61503 21.3199 9.1286 20.865 9.90907C20.0505 11.3066 19.1241 13.1437 18.2566 15.082C18.1805 15.2521 18.1052 15.4223 18.0307 15.5922L19.0453 16.0463C19.1225 15.8775 19.1992 15.708 19.2753 15.5379C20.1428 13.5996 20.8957 11.6848 21.3951 10.1463ZM18.5731 17.0573L17.5914 16.618C17.2869 17.3451 17.0035 18.0579 16.7499 18.7354C16.8917 18.7674 17.0325 18.8137 17.1702 18.8754C17.308 18.937 17.4363 19.0112 17.5547 19.0956C17.8909 18.455 18.2337 17.7688 18.5731 17.0573ZM16.806 22.4214L17.2771 21.3687C17.5285 20.807 17.276 20.1455 16.7143 19.8941C16.1526 19.6427 15.4911 19.8951 15.2397 20.4569C14.7285 21.599 15.2266 22.9373 16.35 23.4401L16.6304 23.5655C16.5849 23.1767 16.6436 22.7842 16.806 22.4214Z" fill="url(#paint0_linear)"/>
<path d="M8.98857 8.77254C8.65866 7.90815 9.09113 6.94148 9.95574 6.61154C10.8181 6.28239 11.7876 6.71625 12.1167 7.57871C12.4467 8.4431 12.0142 9.40977 11.1496 9.73971C10.2872 10.0688 9.31772 9.635 8.98857 8.77254ZM11.074 7.97668C10.9643 7.68921 10.6412 7.54457 10.3537 7.65428C10.0655 7.76426 9.92129 8.08641 10.0313 8.3746C10.1411 8.66213 10.4641 8.80669 10.7516 8.697C11.0398 8.587 11.184 8.26483 11.074 7.97668Z" fill="url(#paint1_linear)"/>
<path d="M13.9046 10.1815C13.1884 9.59919 13.0794 8.54269 13.6617 7.82645C14.244 7.11024 15.3005 7.00125 16.0167 7.58354C16.733 8.16585 16.842 9.22234 16.2596 9.93861C15.676 10.6565 14.6226 10.7652 13.9046 10.1815ZM15.3127 8.4495C15.0734 8.25499 14.7213 8.29227 14.5276 8.53043C14.3335 8.76917 14.3699 9.12137 14.6086 9.31545C14.8479 9.50997 15.199 9.47384 15.3936 9.2345C15.5878 8.99577 15.5515 8.64363 15.3127 8.4495Z" fill="url(#paint2_linear)"/>
<path d="M10.6272 16.8665C10.0457 17.5816 8.9894 17.6925 8.27209 17.1093C7.55585 16.527 7.4469 15.4705 8.0292 14.7543C8.61281 14.0365 9.66607 13.9276 10.3843 14.5114C11.1005 15.0937 11.2095 16.1502 10.6272 16.8665ZM9.68019 15.3773C9.44046 15.1824 9.08935 15.2194 8.89522 15.4583C8.70109 15.6971 8.73742 16.0492 8.97616 16.2433C9.21493 16.4375 9.56708 16.4011 9.76116 16.1624C9.95529 15.9236 9.91897 15.5715 9.68019 15.3773Z" fill="url(#paint3_linear)"/>
<path d="M9.38964 11.9046C9.24345 12.8161 8.383 13.4387 7.47154 13.2925C6.5587 13.1461 5.93705 12.2887 6.08368 11.3744C6.2302 10.4609 7.08808 9.84002 8.00172 9.98656C8.91526 10.1329 9.53612 10.9909 9.38964 11.9046ZM7.18568 11.5512C7.13678 11.8556 7.34372 12.1417 7.64826 12.1905C7.95208 12.2392 8.23889 12.0317 8.28761 11.7278C8.33639 11.424 8.13016 11.1375 7.82501 11.0885C7.52125 11.0398 7.23441 11.2473 7.18568 11.5512Z" fill="url(#paint4_linear)"/>
<defs>
<linearGradient id="paint0_linear" x1="16.9768" y1="4.07502" x2="9.19566" y2="21.4608" gradientUnits="userSpaceOnUse">
<stop stop-color="#F45293"/>
<stop offset="1" stop-color="#4462C9"/>
</linearGradient>
<linearGradient id="paint1_linear" x1="11.2227" y1="6.64223" x2="9.85556" y2="9.69691" gradientUnits="userSpaceOnUse">
<stop stop-color="#F45293"/>
<stop offset="1" stop-color="#4462C9"/>
</linearGradient>
<linearGradient id="paint2_linear" x1="15.6311" y1="7.34825" x2="14.263" y2="10.405" gradientUnits="userSpaceOnUse">
<stop stop-color="#F45293"/>
<stop offset="1" stop-color="#4462C9"/>
</linearGradient>
<linearGradient id="paint3_linear" x1="9.99877" y1="14.2758" x2="8.6307" y2="17.3326" gradientUnits="userSpaceOnUse">
<stop stop-color="#F45293"/>
<stop offset="1" stop-color="#4462C9"/>
</linearGradient>
<linearGradient id="paint4_linear" x1="8.40709" y1="10.1049" x2="7.03889" y2="13.1619" gradientUnits="userSpaceOnUse">
<stop stop-color="#F45293"/>
<stop offset="1" stop-color="#4462C9"/>
</linearGradient>
</defs>
</svg>
