<svg width="13" height="20" viewBox="0 0 13 20" fill="none" xmlns="http://www.w3.org/2000/svg">
<path d="M4.10385 9.64874H7.99698C9.00772 9.64874 9.83002 8.82858 9.83002 7.82028V7.06146C9.83002 6.05316 9.00772 5.23285 7.99698 5.23285H4.80545C3.79471 5.23285 2.97241 6.05316 2.97241 7.06146V8.51929C2.97241 9.14215 3.48007 9.64874 4.10385 9.64874ZM4.14429 7.06131C4.14429 6.69937 4.44092 6.40472 4.80545 6.40472H7.99698C8.36167 6.40472 8.65814 6.69937 8.65814 7.06131V7.82028C8.65814 8.18237 8.36167 8.47687 7.99698 8.47687H4.14429V7.06131Z" fill="url(#paint0_linear)"/>
<path d="M10.1303 0H2.565C1.15067 0 0 1.15067 0 2.565V17.435C0 18.8493 1.15067 20 2.565 20H10.1303C11.5446 20 12.6953 18.8493 12.6953 17.435V2.565C12.6953 1.15067 11.5446 0 10.1303 0ZM2.565 1.17188H10.1303C10.8984 1.17188 11.5234 1.79688 11.5234 2.565V16.264H1.17188V2.565C1.17188 1.79688 1.79688 1.17188 2.565 1.17188ZM10.1303 18.8281H2.565C1.79718 18.8281 1.17233 18.2037 1.17188 17.4359H11.5234C11.523 18.2037 10.8981 18.8281 10.1303 18.8281Z" fill="url(#paint1_linear)"/>
<path d="M5.31934 3.12668H7.37592C7.69955 3.12668 7.96185 2.86438 7.96185 2.54074C7.96185 2.2171 7.69955 1.9548 7.37592 1.9548H5.31934C4.9957 1.9548 4.7334 2.2171 4.7334 2.54074C4.7334 2.86438 4.9957 3.12668 5.31934 3.12668Z" fill="url(#paint2_linear)"/>
<path d="M4.69827 14.7981H8.5914C9.21518 14.7981 9.72284 14.2914 9.72284 13.6685V12.2107C9.72284 11.2024 8.90054 10.3821 7.8898 10.3821H4.69827C3.68753 10.3821 2.86523 11.2024 2.86523 12.2107V12.9695C2.86523 13.9778 3.68753 14.7981 4.69827 14.7981ZM4.03711 12.2107C4.03711 11.8486 4.33374 11.554 4.69827 11.554H7.8898C8.25433 11.554 8.55096 11.8486 8.55096 12.2107V13.6261H4.69827C4.33374 13.6261 4.03711 13.3316 4.03711 12.9695V12.2107Z" fill="url(#paint3_linear)"/>
<defs>
<linearGradient id="paint0_linear" x1="6.43156" y1="5.23285" x2="6.43156" y2="9.64874" gradientUnits="userSpaceOnUse">
<stop stop-color="#F45293"/>
<stop offset="1" stop-color="#4462C9"/>
</linearGradient>
<linearGradient id="paint1_linear" x1="6.40383" y1="-1.63132e-06" x2="6.40384" y2="20" gradientUnits="userSpaceOnUse">
<stop stop-color="#F45293"/>
<stop offset="1" stop-color="#4462C9"/>
</linearGradient>
<linearGradient id="paint2_linear" x1="6.36191" y1="1.9548" x2="6.36191" y2="3.12668" gradientUnits="userSpaceOnUse">
<stop stop-color="#F45293"/>
<stop offset="1" stop-color="#4462C9"/>
</linearGradient>
<linearGradient id="paint3_linear" x1="6.32438" y1="10.3821" x2="6.32438" y2="14.7981" gradientUnits="userSpaceOnUse">
<stop stop-color="#F45293"/>
<stop offset="1" stop-color="#4462C9"/>
</linearGradient>
</defs>
</svg>
