<svg width="88" height="88" viewBox="0 0 88 88" fill="none" xmlns="http://www.w3.org/2000/svg">
<circle cx="44" cy="44" r="44" fill="white"/>
<g clip-path="url(#clip0)">
<path d="M43.7704 66.7519C43.7704 67.9076 42.8333 68.8446 41.6776 68.8446C40.5217 68.8446 39.5849 67.9076 39.5849 66.7519C39.5849 65.5962 40.5219 64.6591 41.6776 64.6591C42.8333 64.6591 43.7704 65.596 43.7704 66.7519ZM70.6476 61.5056C70.2838 61.1402 69.6932 61.1383 69.3279 61.5028L68.2713 62.5556L67.2188 61.4993C66.855 61.1339 66.2644 61.132 65.899 61.4965C65.5345 61.86 65.5327 62.4513 65.8972 62.8162L66.9495 63.8725L65.8927 64.9254C65.528 65.2891 65.5264 65.8801 65.8909 66.2451C66.0731 66.4282 66.312 66.5199 66.5516 66.5199C66.7896 66.5199 67.0284 66.4292 67.2106 66.2479L68.2671 65.1951L69.3195 66.2514C69.5019 66.4346 69.7406 66.5262 69.9802 66.5262C70.218 66.5262 70.457 66.4357 70.6392 66.2542C71.0037 65.8906 71.0055 65.2994 70.641 64.9344L69.5887 63.8782L70.6455 62.8254C71.0104 62.4618 71.0123 61.8708 70.6476 61.5056ZM66.3619 41.9695C64.818 41.9695 63.562 40.7135 63.562 39.1695C63.562 37.6256 64.818 36.3695 66.3619 36.3695C67.9059 36.3695 69.162 37.6256 69.162 39.1695C69.162 40.7135 67.9059 41.9695 66.3619 41.9695ZM66.3619 40.1029C66.8769 40.1029 67.2953 39.684 67.2953 39.1695C67.2953 38.655 66.8769 38.2362 66.3619 38.2362C65.847 38.2362 65.4286 38.655 65.4286 39.1695C65.4286 39.684 65.847 40.1029 66.3619 40.1029ZM22.4953 33.5695C21.9799 33.5695 21.562 33.9874 21.562 34.5029C21.562 35.0183 21.9799 35.4362 22.4953 35.4362C23.0107 35.4362 23.4286 35.0183 23.4286 34.5029C23.4286 33.9874 23.0107 33.5695 22.4953 33.5695ZM61.6953 47.5695C61.1798 47.5695 60.762 47.9874 60.762 48.5029C60.762 49.0183 61.1798 49.4362 61.6953 49.4362C62.2107 49.4362 62.6286 49.0183 62.6286 48.5029C62.6286 47.9874 62.2107 47.5695 61.6953 47.5695ZM67.082 27.9126L60.3947 34.2887C60.1203 34.5493 59.7176 34.6186 59.3729 34.4669C59.0276 34.3143 58.8078 33.9683 58.8169 33.591L58.9062 29.8586L57.0286 29.8138V67.2559C57.0286 69.7815 54.9177 71.8364 52.3228 71.8364H31.8669C29.272 71.8364 27.161 69.7815 27.161 67.2559V22.0062C27.161 19.6335 29.1434 17.7029 31.5808 17.7029H52.6091C55.0465 17.7029 57.0289 19.6335 57.0289 22.0062V24.2124L59.0404 24.2605L59.106 21.4614C59.1151 21.0967 59.3347 20.7705 59.6693 20.6265C60.0057 20.4821 60.3921 20.5458 60.6637 20.7892L67.0622 26.5432C67.2554 26.7172 67.3674 26.9639 67.3711 27.2236C67.3746 27.4837 67.2698 27.7334 67.082 27.9126ZM29.0277 22.0062V26.1029H50.0291C50.1453 25.9694 50.2671 25.8401 50.3968 25.7165C51.4942 24.6707 52.9443 24.106 54.4465 24.151L55.162 24.1681V22.0065C55.162 20.6629 54.0163 19.5698 52.6088 19.5698H31.5808C30.1736 19.5695 29.0277 20.6629 29.0277 22.0062ZM48.42 38.9444L48.6405 29.6866C48.655 29.0926 48.7623 28.5158 48.9504 27.9695H29.0277V61.5695H55.162V29.7835C54.4344 29.8236 53.7636 30.2459 53.495 30.934L50.2228 39.3067C50.0807 39.6698 49.7313 39.9001 49.354 39.9001C49.2929 39.9001 49.2311 39.8943 49.169 39.8819C48.7252 39.7925 48.4091 39.3973 48.42 38.9444ZM55.162 67.2556V63.4362H29.0277V67.2556C29.0277 68.7523 30.301 69.9695 31.8669 69.9695H52.3228C53.8887 69.9695 55.162 68.7523 55.162 67.2556ZM71.7242 26.7016L66.9609 22.3012C66.5827 21.9516 65.993 21.9731 65.6421 22.353C65.2921 22.7317 65.3159 23.3222 65.6942 23.6718L69.7264 27.3969L66.2957 30.6599C65.9219 31.0155 65.9074 31.606 66.263 31.9796C66.4462 32.1723 66.6924 32.2694 66.9392 32.2694C67.1707 32.2694 67.4022 32.1842 67.5828 32.0123L71.7345 28.0629C71.9214 27.8851 72.0261 27.6377 72.0243 27.3797C72.0221 27.1223 71.9137 26.8766 71.7242 26.7016Z" fill="url(#paint0_linear)"/>
</g>
<defs>
<linearGradient id="paint0_linear" x1="47.0164" y1="17.7029" x2="47.0164" y2="71.8364" gradientUnits="userSpaceOnUse">
<stop stop-color="#F45293"/>
<stop offset="1" stop-color="#4462C9"/>
</linearGradient>
<clipPath id="clip0">
<rect width="70" height="70" fill="white" transform="translate(4 11)"/>
</clipPath>
</defs>
</svg>
