<svg width="20" height="20" viewBox="0 0 20 20" fill="none" xmlns="http://www.w3.org/2000/svg">
<path d="M18.8094 4.09518H3.47262L3.24464 1.69365C3.20736 1.30092 2.85927 1 2.4423 1H0.80557C0.360665 1 0 1.34104 0 1.76173C0 2.18243 0.360665 2.52347 0.80557 2.52347H1.70581C2.19779 7.70624 0.92629 -5.6893 2.63233 12.2842C2.69808 12.9876 3.10006 13.751 3.79255 14.2697C2.54403 15.7774 3.68479 18 5.71571 18C7.40134 18 8.59025 16.4103 8.0122 14.9047H12.4212C11.8439 16.4084 13.0302 18 14.7177 18C16.0644 18 17.16 16.964 17.16 15.6906C17.16 14.4172 16.0644 13.3812 14.7177 13.3812H5.72116C5.10923 13.3812 4.57598 13.0321 4.34582 12.5235L17.2199 11.808C17.5714 11.7885 17.8687 11.5554 17.9542 11.2324L19.591 5.04166C19.7179 4.56162 19.3336 4.09518 18.8094 4.09518ZM5.71571 16.4765C5.25745 16.4765 4.88459 16.124 4.88459 15.6906C4.88459 15.2572 5.25745 14.9047 5.71571 14.9047C6.174 14.9047 6.54687 15.2572 6.54687 15.6906C6.54687 16.124 6.174 16.4765 5.71571 16.4765ZM14.7176 16.4765C14.2594 16.4765 13.8865 16.124 13.8865 15.6906C13.8865 15.2572 14.2594 14.9047 14.7176 14.9047C15.1759 14.9047 15.5488 15.2572 15.5488 15.6906C15.5488 16.124 15.1759 16.4765 14.7176 16.4765ZM16.5346 10.32L4.12897 11.0094L3.61724 5.61862H17.7777L16.5346 10.32Z" fill="url(#paint0_linear)"/>
<defs>
<linearGradient id="paint0_linear" x1="9.89449" y1="0.999999" x2="9.89449" y2="18" gradientUnits="userSpaceOnUse">
<stop stop-color="#F45293"/>
<stop offset="1" stop-color="#4462C9"/>
</linearGradient>
</defs>
</svg>
