<svg width="43" height="47" viewBox="0 0 43 47" fill="none" xmlns="http://www.w3.org/2000/svg">
<path d="M37.7204 10.3889H17.8633V10.3487C17.8633 9.54714 17.5449 8.7784 16.9781 8.21161C16.4113 7.64482 15.6426 7.3264 14.841 7.3264H12.3125V2.47559C12.3125 2.00602 12.126 1.55568 11.7939 1.22365C11.4619 0.891613 11.0116 0.705078 10.542 0.705078C10.0724 0.705078 9.6221 0.891613 9.29007 1.22365C8.95803 1.55568 8.7715 2.00602 8.7715 2.47559V7.35511C8.0538 7.46225 7.39835 7.82326 6.9242 8.37258C6.45005 8.92189 6.18866 9.62306 6.18752 10.3487V10.3889H5.27968C4.70544 10.3877 4.13667 10.5003 3.60621 10.7202C3.07575 10.9401 2.5941 11.2629 2.1891 11.67C1.7841 12.0771 1.46377 12.5604 1.2466 13.092C1.02943 13.6236 0.919734 14.1929 0.923844 14.7671V38.8127C0.919277 39.3882 1.02849 39.9589 1.2452 40.4921C1.46191 41.0252 1.78184 41.5103 2.18662 41.9194C2.59139 42.3285 3.07303 42.6535 3.60384 42.8759C4.13465 43.0983 4.70417 43.2135 5.27968 43.2151H6.18752V43.2313C6.18752 44.0392 6.50847 44.814 7.07976 45.3853C7.65106 45.9566 8.42591 46.2776 9.23384 46.2776H14.8008C15.613 46.2776 16.392 45.9549 16.9663 45.3806C17.5406 44.8063 17.8633 44.0273 17.8633 43.2151H37.7204C38.2959 43.2135 38.8654 43.0983 39.3962 42.8759C39.927 42.6535 40.4086 42.3285 40.8134 41.9194C41.2182 41.5103 41.5381 41.0252 41.7548 40.4921C41.9715 39.9589 42.0808 39.3882 42.0762 38.8127V14.7671C42.0803 14.1929 41.9706 13.6236 41.7534 13.092C41.5363 12.5604 41.2159 12.0771 40.8109 11.67C40.4059 11.2629 39.9243 10.9401 39.3938 10.7202C38.8634 10.5003 38.2946 10.3877 37.7204 10.3889ZM6.18752 42.0666H5.27968C4.85494 42.0653 4.43467 41.9798 4.04312 41.8152C3.65156 41.6506 3.29646 41.4102 2.9983 41.1077C2.70013 40.8052 2.46479 40.4467 2.30586 40.0528C2.14693 39.6589 2.06754 39.2374 2.07228 38.8127V14.7671C2.06801 14.3437 2.14789 13.9236 2.30728 13.5313C2.46668 13.139 2.70241 12.7822 3.0008 12.4817C3.29919 12.1813 3.6543 11.943 4.0455 11.7809C4.4367 11.6188 4.85621 11.536 5.27968 11.5373H6.18752V42.0666ZM9.91994 2.47559C9.91994 2.3106 9.98548 2.15238 10.1021 2.03572C10.2188 1.91906 10.377 1.85352 10.542 1.85352C10.707 1.85352 10.8652 1.91906 10.9819 2.03572C11.0985 2.15238 11.1641 2.3106 11.1641 2.47559V7.3264H9.91994V2.47559ZM16.7149 43.2313C16.7149 43.7346 16.5149 44.2173 16.159 44.5733C15.8031 44.9292 15.3203 45.1291 14.817 45.1291H9.21001C8.96391 45.1291 8.72021 45.0807 8.49284 44.9865C8.26547 44.8923 8.05887 44.7543 7.88485 44.5802C7.71083 44.4062 7.57279 44.1996 7.47861 43.9723C7.38443 43.7449 7.33595 43.5012 7.33595 43.2551V23.4045H16.7149V43.2313ZM16.7149 22.2561H7.33595V20.342H16.7149V22.2561ZM40.9277 38.8127C40.9325 39.2374 40.8531 39.6589 40.6942 40.0528C40.5352 40.4467 40.2999 40.8052 40.0017 41.1077C39.7036 41.4102 39.3485 41.6506 38.9569 41.8152C38.5654 41.9798 38.1451 42.0653 37.7204 42.0666H17.8633V16.5139C17.8633 16.3616 17.8028 16.2156 17.6951 16.1079C17.5874 16.0002 17.4414 15.9397 17.2891 15.9397C17.1368 15.9397 16.9907 16.0002 16.883 16.1079C16.7754 16.2156 16.7149 16.3616 16.7149 16.5139V19.1936H7.33595V10.3487C7.33595 9.85172 7.53338 9.3751 7.8848 9.02368C8.23621 8.67226 8.71284 8.47483 9.20982 8.47483H14.8008C15.3084 8.47483 15.7953 8.67649 16.1542 9.03545C16.5132 9.39441 16.7149 9.88126 16.7149 10.3889V12.6858C16.7149 12.8381 16.7754 12.9841 16.883 13.0918C16.9907 13.1995 17.1368 13.26 17.2891 13.26C17.4414 13.26 17.5874 13.1995 17.6951 13.0918C17.8028 12.9841 17.8633 12.8381 17.8633 12.6858V11.5373H37.7204C38.1438 11.536 38.5633 11.6188 38.9545 11.7809C39.3457 11.943 39.7008 12.1813 39.9992 12.4817C40.2976 12.7822 40.5334 13.139 40.6927 13.5313C40.8521 13.9236 40.932 14.3437 40.9277 14.7671V38.8127Z" fill="url(#paint0_linear)"/>
<defs>
<linearGradient id="paint0_linear" x1="21.6821" y1="0.705074" x2="21.6821" y2="46.2776" gradientUnits="userSpaceOnUse">
<stop stop-color="#F45293"/>
<stop offset="1" stop-color="#4462C9"/>
</linearGradient>
</defs>
</svg>
