<svg width="56" height="52" viewBox="0 0 56 52" fill="none" xmlns="http://www.w3.org/2000/svg">
<path d="M25.5537 4.08853L26.2136 3.42866L25.5537 2.7688C25.1892 2.40433 25.1892 1.81353 25.5537 1.44906C25.9182 1.0846 26.509 1.0846 26.8734 1.44906L27.5333 2.10893L28.1932 1.44906C28.5576 1.0846 29.1484 1.0846 29.5129 1.44906C29.8774 1.81353 29.8774 2.40433 29.5129 2.7688L28.853 3.42866L29.5129 4.08853C29.8774 4.453 29.8774 5.0438 29.5129 5.40826C29.3307 5.5905 29.0917 5.68173 28.853 5.68173C28.6143 5.68173 28.3754 5.5905 28.1932 5.40826L27.5333 4.7484L26.8734 5.40826C26.6912 5.5905 26.4523 5.68173 26.2136 5.68173C25.9749 5.68173 25.7359 5.5905 25.5537 5.40826C25.189 5.0438 25.189 4.453 25.5537 4.08853ZM45.7333 2.1521C46.3169 2.1521 46.7903 1.6789 46.7903 1.09533C46.7903 0.51153 46.3171 0.0383301 45.7333 0.0383301C45.1495 0.0383301 44.6763 0.51153 44.6763 1.09533C44.6763 1.6789 45.1497 2.1521 45.7333 2.1521ZM47.1333 9.02866C47.1333 7.4847 48.3893 6.22866 49.9333 6.22866C51.4773 6.22866 52.7333 7.4847 52.7333 9.02866C52.7333 10.5726 51.4773 11.8287 49.9333 11.8287C48.3893 11.8287 47.1333 10.5726 47.1333 9.02866ZM49 9.02866C49 9.54316 49.4183 9.962 49.9333 9.962C50.4483 9.962 50.8666 9.54316 50.8666 9.02866C50.8666 8.51416 50.4483 8.09533 49.9333 8.09533C49.4183 8.09533 49 8.51416 49 9.02866ZM21.3591 29.0232L17.2666 30.7287V48.5241C17.2666 50.4199 15.7245 51.962 13.8287 51.962H3.90458C2.00874 51.962 0.466644 50.4199 0.466644 48.5241V7.79993C0.466644 5.9041 2.00874 4.362 3.90458 4.362H13.8285C15.7243 4.362 17.2664 5.9041 17.2664 7.79993V25.5953L21.3588 27.3008C21.706 27.4457 21.9331 27.7852 21.9331 28.162C21.9331 28.5388 21.7063 28.8783 21.3591 29.0232ZM18.5738 28.162L15.9742 27.0786C15.627 26.9337 15.4 26.5942 15.4 26.2174V7.79993C15.4 6.93356 14.6953 6.22866 13.8287 6.22866H3.90458C3.03774 6.22866 2.33331 6.93356 2.33331 7.79993V48.5238C2.33331 49.3902 3.03798 50.0951 3.90458 50.0951H13.8285C14.6953 50.0951 15.3997 49.3902 15.3997 48.5238V30.1064C15.3997 29.7295 15.6268 29.39 15.974 29.2451L18.5738 28.162ZM54.6 40.762H49V14.302C49 12.4234 47.5062 10.8953 45.6703 10.8953H20.0666C19.5507 10.8953 19.1333 11.3132 19.1333 11.8287C19.1333 12.3441 19.5507 12.762 20.0666 12.762H45.6703C46.4769 12.762 47.1333 13.4529 47.1333 14.302V40.762H20.0666C19.5507 40.762 19.1333 41.1799 19.1333 41.6953C19.1333 42.2108 19.5507 42.6287 20.0666 42.6287H33.8123C33.4868 43.1887 32.8836 43.562 32.2 43.562H20.0666C19.5507 43.562 19.1333 43.9799 19.1333 44.4953C19.1333 45.0108 19.5507 45.4287 20.0666 45.4287H32.2C33.9185 45.4287 35.3817 44.252 35.8012 42.6287H53.6666V44.8995C53.6666 45.7056 53.0105 46.362 52.2036 46.362H20.0666C19.5507 46.362 19.1333 46.7799 19.1333 47.2953C19.1333 47.8108 19.5507 48.2287 20.0666 48.2287H52.2036C54.0393 48.2287 55.5333 46.7353 55.5333 44.8995V41.6953C55.5333 41.1799 55.1159 40.762 54.6 40.762ZM5.13331 11.8287C5.13331 9.7702 6.80771 8.09533 8.86664 8.09533C10.9256 8.09533 12.6 9.7702 12.6 11.8287C12.6 13.8871 10.9256 15.562 8.86664 15.562C6.80771 15.562 5.13331 13.8871 5.13331 11.8287ZM13.8196 24.3934C14.0028 24.6804 14.0156 25.0451 13.8516 25.344C13.6875 25.6425 13.3739 25.8284 13.033 25.8284H4.70048C4.35958 25.8284 4.04598 25.6425 3.88194 25.344C3.71791 25.0451 3.73074 24.6804 3.91391 24.3934L8.08008 17.8601C8.42284 17.3223 9.31045 17.3223 9.65321 17.8601L13.8196 24.3934ZM11.3311 23.962L8.86664 20.0978L6.40218 23.962H11.3311ZM13.4085 31.8953C13.5753 32.1842 13.5753 32.5398 13.4085 32.8287L11.5418 36.0615C11.375 36.3504 11.067 36.5282 10.7333 36.5282H6.99998C6.66631 36.5282 6.35831 36.3504 6.19148 36.0615L4.32481 32.8287C4.15798 32.5398 4.15798 32.1842 4.32481 31.8953L6.19148 28.6625C6.35831 28.3736 6.66631 28.1958 6.99998 28.1958H10.7333C11.067 28.1958 11.375 28.3736 11.5418 28.6625L13.4085 31.8953ZM12.6 40.762V46.362C12.6 46.8774 12.1825 47.2953 11.6666 47.2953H6.06664C5.55074 47.2953 5.13331 46.8774 5.13331 46.362V40.762C5.13331 40.2466 5.55074 39.8287 6.06664 39.8287H11.6666C12.1825 39.8287 12.6 40.2466 12.6 40.762ZM10.7333 41.6953H6.99998V45.4287H10.7333V41.6953Z" fill="url(#paint0_linear)"/>
<defs>
<linearGradient id="paint0_linear" x1="28.2436" y1="0.0383258" x2="28.2436" y2="51.962" gradientUnits="userSpaceOnUse">
<stop stop-color="#F45293"/>
<stop offset="1" stop-color="#4462C9"/>
</linearGradient>
</defs>
</svg>
