<svg width="54" height="56" viewBox="0 0 54 56" fill="none" xmlns="http://www.w3.org/2000/svg">
<path d="M50.8 29.4457V3.26761C50.8 1.72318 49.5435 0.466675 47.9991 0.466675H3.20093C1.6565 0.466675 0.399998 1.72318 0.399998 3.26761V37.7991C0.399998 39.3435 1.6565 40.6 3.20093 40.6H25.764L33.1985 51.6714C34.8223 54.0895 37.5369 55.5333 40.4601 55.5333H48.1806C51.1687 55.5333 53.6 53.1071 53.6 50.1251V32.5705C53.6 30.9773 52.379 29.6679 50.8 29.4457ZM3.20093 38.7333C2.68596 38.7333 2.26666 38.314 2.26666 37.7991V3.26761C2.26666 2.75264 2.68596 2.33334 3.20093 2.33334H47.9991C48.514 2.33334 48.9333 2.75264 48.9333 3.26761V5.13334H21.8667C21.3512 5.13334 20.9333 5.55124 20.9333 6.06668C20.9333 6.58211 21.3512 7.00001 21.8667 7.00001H48.9333V29.718C48.9284 29.7204 48.924 29.7234 48.9191 29.7255C48.8433 27.9911 47.4195 26.6 45.6667 26.6C44.7581 26.6 43.9363 26.9745 43.3434 27.5756C42.7491 26.9764 41.92 26.6 41 26.6C40.4993 26.6 40.0247 26.7108 39.6 26.9075V24.8421C41.8722 23.6357 43.3333 21.2525 43.3333 18.6667C43.3333 14.8066 40.1934 11.6667 36.3333 11.6667C32.4733 11.6667 29.3333 14.8066 29.3333 18.6667C29.3333 21.1897 30.6958 23.5139 32.8893 24.7567V37.8019C31.9747 36.7222 30.8411 35.3824 29.9316 34.3019C28.7052 32.8426 26.5049 32.6475 24.9779 33.9045C23.6157 35.0259 23.3301 36.9752 24.3125 38.4386L24.5106 38.7336H3.20093V38.7333ZM51.7333 50.1251C51.7333 52.0779 50.1397 53.6667 48.1806 53.6667H40.4601C38.1599 53.6667 36.0244 52.532 34.7481 50.6305L25.8623 37.3975C25.418 36.7358 25.5477 35.8535 26.2123 35.3057C26.9057 34.7361 27.9336 34.8241 28.5036 35.5035C30.3479 37.6945 33.1115 40.9495 33.1115 40.9495C33.3653 41.2494 33.7786 41.3569 34.1447 41.2216C34.5119 41.0867 34.7562 40.7372 34.7562 40.3457V19.6341C34.7562 18.8435 35.4061 18.2 36.2045 18.2C37.0189 18.2 37.7336 18.8704 37.7336 19.6341V36.8667C37.7336 37.3821 38.1515 37.8 38.6669 37.8C39.1823 37.8 39.6002 37.3821 39.6002 36.8667V29.7873C39.6002 29.0591 40.2284 28.4667 41.0002 28.4667C41.7721 28.4667 42.4002 29.0591 42.4002 29.7873V29.8667V36.8667C42.4002 37.3821 42.8181 37.8 43.3336 37.8C43.849 37.8 44.2669 37.3821 44.2669 36.8667V29.8667C44.2669 29.0948 44.895 28.4667 45.6669 28.4667C46.4388 28.4667 47.0669 29.0948 47.0669 29.8667V32.5705V36.8667V37.4409C47.0669 37.9563 47.4848 38.3742 48.0002 38.3742C48.5157 38.3742 48.9336 37.9563 48.9336 37.4409V36.8667V32.5705C48.9336 31.8514 49.5617 31.2667 50.3336 31.2667C51.1054 31.2667 51.7336 31.8514 51.7336 32.5705V50.1251H51.7333ZM17.2908 23.5405C17.7026 23.6056 18.1142 23.6404 18.5235 23.6404C20.1286 23.6404 21.6912 23.1436 23.0247 22.193C24.7173 20.9862 25.8389 19.1926 26.1824 17.1423C26.5536 14.928 25.9414 12.6726 24.5411 10.9478C24.5367 10.9422 24.5318 10.9377 24.5271 10.9324C24.351 10.7165 24.1669 10.5058 23.9662 10.308C23.6395 9.98621 23.129 9.94888 22.7585 10.22L15.3245 15.6777C14.9812 14.08 14.1888 13.702 13.6881 13.6421C13.6207 13.6339 13.549 13.6257 13.4753 13.6316C13.4501 13.23 13.3997 12.8527 13.3246 12.5123C12.9876 10.9846 12.2489 10.584 11.6889 10.517C11.3226 10.4708 10.7306 10.5476 10.1498 11.2453C8.99763 9.93511 7.87016 9.44604 6.90323 9.85951C5.93653 10.2732 5.51233 11.4268 5.6633 13.1635C4.7659 13.1028 4.29503 13.478 4.07313 13.7737C3.3869 14.6897 3.97513 15.9966 5.09443 17.2135C5.04076 17.2667 4.99316 17.3224 4.9514 17.378C4.6133 17.8292 4.39256 18.6403 5.26406 19.9388C5.66703 20.5389 6.25666 21.171 6.95713 21.7586C6.92516 21.794 6.896 21.8293 6.87056 21.8638C6.58916 22.239 6.32783 23.0008 7.0633 24.22C4.80556 25.1048 3.2 27.2995 3.2 29.8667C3.2 33.2117 5.9216 35.9333 9.26666 35.9333C11.085 35.9333 12.7146 35.1253 13.8276 33.8539L14.0418 34.3546C14.1935 34.7093 14.5381 34.9216 14.9005 34.9216C15.0232 34.9216 15.1476 34.8969 15.2668 34.846L19.192 33.1674C19.6659 32.9646 19.8859 32.4163 19.6831 31.9424L19.2585 30.9484C18.4915 29.1545 17.1251 24.6944 17.2887 23.5545L17.2908 23.5405ZM24.3414 16.8336C24.0803 18.3923 23.2275 19.7559 21.9411 20.6731C20.6545 21.5901 19.0879 21.9518 17.5288 21.6902C16.3999 21.5012 15.3599 20.9958 14.5204 20.2281C14.5199 20.2281 14.5199 20.2281 14.5199 20.2281C14.19 19.9264 13.8969 19.5916 13.644 19.2269L18.1646 15.908C18.7134 16.3966 19.3793 16.7281 20.0971 16.8488C20.3094 16.8842 20.5208 16.9017 20.7306 16.9017C22.2055 16.9017 23.5665 16.0461 24.3045 14.7219C24.4394 15.4107 24.4602 16.1243 24.3414 16.8336ZM23.0074 12.3529C23.0186 12.5508 23.0084 12.75 22.9745 12.95C22.7508 14.2844 21.6002 15.2073 20.4055 15.008C20.164 14.9676 19.9361 14.8839 19.7279 14.7604L23.0074 12.3529ZM9.26666 34.0667C6.9506 34.0667 5.06666 32.1827 5.06666 29.8667C5.06666 27.5506 6.9506 25.6667 9.26666 25.6667C11.5827 25.6667 13.4667 27.5506 13.4667 29.8667C13.4667 32.1827 11.5827 34.0667 9.26666 34.0667ZM17.5423 31.6822L17.6002 31.818L15.3912 32.7628L15.3329 32.6265C15.2486 32.4296 15.128 32.1692 14.985 31.8736C15.2066 31.2443 15.3333 30.5706 15.3333 29.8667C15.3333 26.5216 12.6117 23.8 9.26666 23.8C9.19783 23.8 9.1311 23.8079 9.06273 23.8103C8.84433 23.5489 8.68333 23.3217 8.5907 23.1546C8.83896 23.2106 9.19783 23.3296 9.66706 23.5662C10.0189 23.7417 10.4403 23.681 10.7248 23.4131C11.0106 23.1453 11.0986 22.7274 10.9453 22.3673L10.8869 22.2301C10.7917 22.0068 10.6139 21.829 10.3902 21.7352C9.8192 21.4942 9.19876 21.1286 8.5977 20.6785C7.55353 19.8959 6.9303 19.1322 6.66803 18.6678C6.74013 18.6837 6.8211 18.7052 6.9128 18.7329C7.34493 18.8669 7.79923 18.6597 8.00573 18.2558C8.21223 17.8512 8.0832 17.3469 7.72013 17.0744C6.67596 16.292 6.05296 15.5281 5.79046 15.0638C5.9573 15.1011 6.17546 15.1678 6.44753 15.2812C6.76976 15.4152 7.13843 15.3587 7.40536 15.1349C7.67253 14.9112 7.7927 14.5577 7.7171 14.217C7.3531 12.5755 7.53743 11.8071 7.6464 11.5985C7.87296 11.6636 8.55616 12.061 9.49113 13.4587C9.68433 13.748 10.0252 13.909 10.3699 13.867C10.7161 13.8287 11.0125 13.6005 11.1378 13.2755C11.2435 13.0006 11.3464 12.7969 11.4343 12.6506C11.5888 13.1628 11.7092 14.1477 11.5505 15.4684C11.4962 15.9192 11.7743 16.3434 12.209 16.4738C12.6435 16.6019 13.1097 16.4022 13.3122 15.9962C13.3542 15.9117 13.3943 15.8394 13.4317 15.7773C13.5063 16.0169 13.5815 16.3807 13.613 16.8957C13.6137 16.9071 13.6204 16.9162 13.6214 16.9274L11.8553 18.224C11.4861 18.4952 11.3681 18.9943 11.5769 19.4021C12.0034 20.2337 12.5695 20.9757 13.2599 21.6064C13.9165 22.2063 14.6735 22.6676 15.4845 23.0095C15.4824 23.0225 15.474 23.0328 15.4724 23.0461L15.4409 23.2857C15.1646 25.2128 17.0383 30.5041 17.5423 31.6822ZM3.2 4.66668C3.2 3.89341 3.82673 3.26667 4.6 3.26667C5.37326 3.26667 6 3.89341 6 4.66668C6 5.43994 5.37326 6.06668 4.6 6.06668C3.82673 6.06668 3.2 5.43994 3.2 4.66668ZM6.93333 4.66668C6.93333 3.89341 7.56006 3.26667 8.33333 3.26667C9.1066 3.26667 9.73333 3.89341 9.73333 4.66668C9.73333 5.43994 9.1066 6.06668 8.33333 6.06668C7.56006 6.06668 6.93333 5.43994 6.93333 4.66668ZM10.6667 4.66668C10.6667 3.89341 11.2934 3.26667 12.0667 3.26667C12.8399 3.26667 13.4667 3.89341 13.4667 4.66668C13.4667 5.43994 12.8399 6.06668 12.0667 6.06668C11.2934 6.06668 10.6667 5.43994 10.6667 4.66668ZM13.9333 44.3333C12.1322 44.3333 10.6667 45.7989 10.6667 47.6C10.6667 49.4011 12.1322 50.8667 13.9333 50.8667C15.7344 50.8667 17.2 49.4011 17.2 47.6C17.2 45.7989 15.7344 44.3333 13.9333 44.3333ZM13.9333 49C13.1615 49 12.5333 48.3719 12.5333 47.6C12.5333 46.8281 13.1615 46.2 13.9333 46.2C14.7052 46.2 15.3333 46.8281 15.3333 47.6C15.3333 48.3719 14.7052 49 13.9333 49Z" fill="url(#paint0_linear)"/>
<defs>
<linearGradient id="paint0_linear" x1="27.2354" y1="0.46667" x2="27.2354" y2="55.5333" gradientUnits="userSpaceOnUse">
<stop stop-color="#F45293"/>
<stop offset="1" stop-color="#4462C9"/>
</linearGradient>
</defs>
</svg>
