<svg width="15" height="13" viewBox="0 0 15 13" fill="none" xmlns="http://www.w3.org/2000/svg">
<path d="M14.8316 0.979816C14.6014 0.741457 14.2215 0.734847 13.9832 0.96505C13.9782 0.969867 13.9733 0.974788 13.9684 0.979816L4.19263 10.7556L1.01682 7.57983C0.778464 7.34963 0.398636 7.35624 0.168433 7.5946C-0.0561445 7.82712 -0.0561445 8.19574 0.168433 8.42826L3.76843 12.0283C4.00275 12.2625 4.38254 12.2625 4.61682 12.0283L14.8168 1.82824C15.0552 1.598 15.0618 1.21817 14.8316 0.979816Z" fill="#4462C9"/>
</svg>
