<svg width="54" height="60" viewBox="0 0 54 60" fill="none" xmlns="http://www.w3.org/2000/svg">
<path d="M53.129 23.8511C53.129 24.3666 52.7111 24.7845 52.1957 24.7845C51.6803 24.7845 51.2624 24.3666 51.2624 23.8511C51.2624 23.3357 51.6803 22.9178 52.1957 22.9178C52.7111 22.9178 53.129 23.3357 53.129 23.8511ZM37.2432 33.0291C37.7645 34.6356 37.2187 36.3149 35.8523 37.3079L30.5559 41.1561C29.8669 41.6566 29.5806 42.5374 29.844 43.3478L31.8675 49.574C32.3887 51.181 31.843 52.8603 30.4766 53.8534C29.7929 54.3492 29.0101 54.5975 28.227 54.5975C27.4439 54.5975 26.6611 54.3492 25.9774 53.8529L20.681 50.0048C19.992 49.5043 19.0659 49.5043 18.3768 50.0048L17.6624 50.5234V56.5178C17.6624 58.0618 16.4063 59.3178 14.8624 59.3178C13.3184 59.3178 12.0624 58.0618 12.0624 56.5178V54.3823C11.6615 54.5223 11.2466 54.5975 10.8311 54.5975C10.0482 54.5975 9.26517 54.3497 8.5815 53.8534C7.21533 52.8603 6.66933 51.181 7.1906 49.574L9.21407 43.3478C9.4775 42.5374 9.1912 41.6566 8.50217 41.1561L3.20573 37.3079C1.55233 36.1072 1.3365 34.1647 1.9483 32.7101C1.28073 31.9662 0.862366 30.9939 0.862366 29.9178C0.862366 27.6017 2.7463 25.7178 5.06237 25.7178C7.37843 25.7178 9.26237 27.6017 9.26237 29.9178C9.26237 30.0776 9.23273 30.2293 9.21523 30.3845H12.0022C12.8534 30.3845 13.6026 29.8403 13.866 29.03L15.8895 22.8032C16.4117 21.1967 17.8399 20.1586 19.529 20.1586C21.2181 20.1586 22.6461 21.1967 23.1686 22.8032L23.4432 23.6472C23.9066 23.4939 24.3863 23.387 24.8773 23.3357L34.1826 3.05249C34.6348 2.06619 35.444 1.31532 36.4613 0.937556C37.4784 0.560723 38.5833 0.601323 39.5684 1.05422C41.6038 1.98802 42.5005 4.40372 41.5671 6.44002L32.2592 26.7286C32.2079 26.8415 32.1465 26.9512 32.0842 27.0595C32.5668 27.8561 32.9109 28.7332 33.0586 29.6726C33.0953 29.9066 33.1041 30.1455 33.1139 30.3845H33.6028C35.2928 30.3845 36.721 31.4228 37.2432 33.0291ZM30.7563 32.9504C31.2048 31.8895 31.3588 30.8845 31.2139 29.9626C30.8793 27.8302 29.3419 26.1254 27.1005 25.4021C26.5965 25.239 26.0843 25.1615 25.5801 25.1615C23.4847 25.1615 21.5322 26.5004 20.8541 28.5995C20.6838 29.1273 20.6126 29.8996 20.6481 30.8339C20.6745 31.5038 20.8131 32.2024 20.9416 32.8044C21.0718 33.4178 21.1369 34.0429 21.171 34.6696C21.7291 34.9153 22.1769 35.3738 22.3953 35.9744C22.459 36.148 22.5904 36.2269 22.6632 36.2584C22.736 36.2894 22.882 36.3317 23.0533 36.2579L24.4533 35.6527C25.1596 35.3472 25.9709 35.3468 26.6791 35.6513C27.2997 35.9189 27.7918 36.4131 28.0842 37.0174C29.5078 35.4585 30.3188 33.985 30.7563 32.9504ZM26.8895 23.4274C27.152 23.479 27.4141 23.5417 27.6747 23.6257C28.8785 24.0145 29.9273 24.6557 30.7867 25.4628L39.8701 5.66186C40.375 4.56169 39.8902 3.25572 38.79 2.75056C38.2568 2.50626 37.6597 2.48316 37.1112 2.68802C36.5617 2.89172 36.1242 3.29772 35.8799 3.83042L26.8895 23.4274ZM35.4678 33.6061C35.2555 32.9511 34.6539 32.2511 33.603 32.2511H32.9273C32.8181 32.7215 32.679 33.1959 32.4755 33.677C31.8752 35.099 30.6751 37.2431 28.3735 39.3832C28.3724 39.3844 28.371 39.3855 28.3698 39.3867C25.3001 42.2383 21.1663 44.2496 16.082 45.3638C16.0155 45.3782 15.9481 45.3852 15.8825 45.3852C15.5278 45.3852 15.1963 45.1829 15.0395 44.8525C14.8535 44.4601 14.962 43.9913 15.302 43.7209C15.3402 43.6903 19.3069 40.4523 19.3398 35.3969C19.3452 34.6468 19.2724 33.9262 19.1156 33.1926C18.9716 32.515 18.8157 31.7238 18.7838 30.9057C18.7392 29.7381 18.8384 28.7693 19.0792 28.0255C19.5654 26.5191 20.5314 25.3025 21.7504 24.4781L21.3931 23.38C21.0686 22.3811 20.2174 22.0251 19.5293 22.0251C18.8412 22.0251 17.9897 22.3809 17.6654 23.38L15.6419 29.6068C15.1279 31.1881 13.6649 32.2509 12.0024 32.2509H8.5514C7.79703 33.3753 6.51533 34.1176 5.06237 34.1176C4.5229 34.1176 4.01097 34.0065 3.53683 33.8205C3.39637 34.4867 3.56763 35.263 4.3031 35.7973L9.59953 39.6455C10.9449 40.6229 11.5035 42.3426 10.9895 43.9243L8.96603 50.1506C8.64147 51.149 9.12097 51.9375 9.67887 52.3428C10.2358 52.7469 11.1344 52.9585 11.983 52.3423L12.0624 52.2849V49.0511C12.0624 48.5357 12.4798 48.1178 12.9957 48.1178C13.5116 48.1178 13.929 48.5357 13.929 49.0511V56.5178C13.929 57.0323 14.3474 57.4511 14.8624 57.4511C15.3773 57.4511 15.7957 57.0323 15.7957 56.5178V49.0511C15.7957 48.5357 16.2131 48.1178 16.729 48.1178C16.9981 48.1178 17.2361 48.2347 17.4064 48.4167C18.7373 47.5265 20.4738 47.5466 21.7786 48.4942L27.075 52.3423C27.9227 52.9581 28.8222 52.7469 29.3792 52.3428C29.9371 51.9377 30.4164 51.1493 30.092 50.1506L28.0686 43.9243C27.5545 42.3426 28.1131 40.6231 29.4585 39.6455L34.755 35.7973C35.6052 35.1802 35.6801 34.2606 35.4678 33.6061ZM23.7729 26.4918C22.6291 27.0765 21.826 28.1342 21.57 29.394C21.4671 29.8994 21.7924 30.3919 22.2982 30.4951C22.3612 30.5079 22.4231 30.5137 22.4851 30.5137C22.9198 30.5137 23.309 30.2088 23.3984 29.7668C23.5414 29.0664 23.9871 28.4786 24.6225 28.1536C25.0819 27.9188 25.2632 27.357 25.0289 26.898C24.7935 26.4379 24.2295 26.2556 23.7729 26.4918ZM52.2722 47.9729C52.4209 48.3488 52.3105 48.7781 51.9988 49.0357L46.1883 53.8368C46.017 53.9784 45.8054 54.0505 45.594 54.0505C45.4209 54.0505 45.2468 54.0022 45.0935 53.9047L38.7324 49.862C38.3905 49.6454 38.2284 49.2336 38.3287 48.8416L40.2082 41.5422C40.3095 41.1507 40.6511 40.8686 41.054 40.8436L48.5762 40.3751C48.9974 40.3513 49.3537 40.5879 49.5023 40.9633L52.2722 47.9729ZM50.287 48.0287L48.0158 42.2805L41.8469 42.6646L40.3057 48.6505L45.5219 51.9655L50.287 48.0287ZM8.87503 13.4806C8.43123 12.7118 8.3127 11.8158 8.5423 10.9578C8.77283 10.1001 9.32257 9.38329 10.0919 8.93902L14.0331 6.66356C15.6219 5.74936 17.6589 6.29349 18.5749 7.88086L20.8499 11.8221C21.2937 12.5909 21.4123 13.4869 21.1827 14.3449C20.9521 15.2026 20.4024 15.9194 19.6331 16.3637L15.6919 18.6392C15.1697 18.9399 14.5989 19.0834 14.0357 19.0834C12.8853 19.0834 11.7653 18.4873 11.15 17.4219L8.87503 13.4806ZM10.492 12.5473L12.767 16.4885C13.1691 17.1843 14.0623 17.4237 14.7585 17.0222L18.6998 14.7467C19.0369 14.5521 19.2784 14.2376 19.3788 13.8617C19.48 13.4858 19.428 13.0928 19.2329 12.7552L16.9579 8.81396C16.6882 8.34682 16.1968 8.08526 15.6928 8.08526C15.4457 8.08526 15.1951 8.14826 14.9664 8.28032L11.0252 10.5558C10.688 10.7504 10.4465 11.0649 10.3462 11.4408C10.2449 11.8167 10.297 12.2097 10.492 12.5473ZM42.7494 30.4976C42.9317 30.6799 43.1706 30.7711 43.4093 30.7711C43.648 30.7711 43.8869 30.6799 44.0692 30.4976L44.729 29.8378L45.3889 30.4976C45.5711 30.6799 45.8101 30.7711 46.0488 30.7711C46.2875 30.7711 46.5264 30.6799 46.7086 30.4976C47.0731 30.1332 47.0731 29.5424 46.7086 29.1779L46.0488 28.518L46.7086 27.8582C47.0731 27.4937 47.0731 26.9029 46.7086 26.5384C46.3442 26.174 45.7534 26.174 45.3889 26.5384L44.729 27.1981L44.0692 26.5382C43.7047 26.1737 43.1139 26.1737 42.7494 26.5382C42.385 26.9027 42.385 27.4935 42.7494 27.8579L43.4093 28.5178L42.7494 29.1777C42.3847 29.5424 42.3847 30.1329 42.7494 30.4976ZM42.8624 16.3845C42.8624 14.8405 44.1184 13.5845 45.6624 13.5845C47.2063 13.5845 48.4624 14.8405 48.4624 16.3845C48.4624 17.9284 47.2063 19.1845 45.6624 19.1845C44.1184 19.1845 42.8624 17.9287 42.8624 16.3845ZM44.729 16.3845C44.729 16.899 45.1474 17.3178 45.6624 17.3178C46.1773 17.3178 46.5957 16.899 46.5957 16.3845C46.5957 15.87 46.1773 15.4511 45.6624 15.4511C45.1474 15.4511 44.729 15.87 44.729 16.3845Z" fill="url(#paint0_linear)"/>
<defs>
<linearGradient id="paint0_linear" x1="27.227" y1="0.681941" x2="27.227" y2="59.3178" gradientUnits="userSpaceOnUse">
<stop stop-color="#F45293"/>
<stop offset="1" stop-color="#4462C9"/>
</linearGradient>
</defs>
</svg>
