<svg width="20" height="20" viewBox="0 0 20 20" fill="none" xmlns="http://www.w3.org/2000/svg">
<path d="M13.5417 14.1667H2.29167C1.0275 14.1667 0 13.1392 0 11.875V2.29167C0 1.0275 1.0275 0 2.29167 0H13.5417C14.8058 0 15.8333 1.0275 15.8333 2.29167V11.875C15.8333 13.1392 14.8058 14.1667 13.5417 14.1667ZM2.29167 1.25C1.7175 1.25 1.25 1.7175 1.25 2.29167V11.875C1.25 12.4492 1.7175 12.9167 2.29167 12.9167H13.5417C14.1158 12.9167 14.5833 12.4492 14.5833 11.875V2.29167C14.5833 1.7175 14.1158 1.25 13.5417 1.25H2.29167Z" fill="url(#paint0_linear)"/>
<path d="M15.2083 4.16667H0.625C0.28 4.16667 0 3.88667 0 3.54167C0 3.19667 0.28 2.91667 0.625 2.91667H15.2083C15.5533 2.91667 15.8333 3.19667 15.8333 3.54167C15.8333 3.88667 15.5533 4.16667 15.2083 4.16667Z" fill="url(#paint1_linear)"/>
<path d="M17.7082 20H6.45817C5.194 20 4.1665 18.9725 4.1665 17.7083V15.625C4.1665 15.28 4.4465 15 4.7915 15C5.1365 15 5.4165 15.28 5.4165 15.625V17.7083C5.4165 18.2825 5.884 18.75 6.45817 18.75H17.7082C18.2823 18.75 18.7498 18.2825 18.7498 17.7083V8.125C18.7498 7.55083 18.2823 7.08333 17.7082 7.08333H17.2915C16.9465 7.08333 16.6665 6.80333 16.6665 6.45833C16.6665 6.11333 16.9465 5.83333 17.2915 5.83333H17.7082C18.9723 5.83333 19.9998 6.86083 19.9998 8.125V17.7083C19.9998 18.9725 18.9723 20 17.7082 20Z" fill="url(#paint2_linear)"/>
<path d="M19.3748 10H17.2915C16.9465 10 16.6665 9.72 16.6665 9.375C16.6665 9.03 16.9465 8.75 17.2915 8.75H19.3748C19.7198 8.75 19.9998 9.03 19.9998 9.375C19.9998 9.72 19.7198 10 19.3748 10Z" fill="url(#paint3_linear)"/>
<path d="M7.9165 11.6667C7.5715 11.6667 7.2915 11.3867 7.2915 11.0417V6.45833C7.2915 6.11333 7.5715 5.83333 7.9165 5.83333C8.2615 5.83333 8.5415 6.11333 8.5415 6.45833V11.0417C8.5415 11.3867 8.2615 11.6667 7.9165 11.6667Z" fill="url(#paint4_linear)"/>
<path d="M10.2083 9.375H5.625C5.28 9.375 5 9.095 5 8.75C5 8.405 5.28 8.125 5.625 8.125H10.2083C10.5533 8.125 10.8333 8.405 10.8333 8.75C10.8333 9.095 10.5533 9.375 10.2083 9.375Z" fill="url(#paint5_linear)"/>
<defs>
<linearGradient id="paint0_linear" x1="7.98673" y1="-1.15552e-06" x2="7.98673" y2="14.1667" gradientUnits="userSpaceOnUse">
<stop stop-color="#F45293"/>
<stop offset="1" stop-color="#4462C9"/>
</linearGradient>
<linearGradient id="paint1_linear" x1="7.98673" y1="2.91667" x2="7.98673" y2="4.16667" gradientUnits="userSpaceOnUse">
<stop stop-color="#F45293"/>
<stop offset="1" stop-color="#4462C9"/>
</linearGradient>
<linearGradient id="paint2_linear" x1="12.1532" y1="5.83333" x2="12.1532" y2="20" gradientUnits="userSpaceOnUse">
<stop stop-color="#F45293"/>
<stop offset="1" stop-color="#4462C9"/>
</linearGradient>
<linearGradient id="paint3_linear" x1="18.3479" y1="8.75" x2="18.3479" y2="10" gradientUnits="userSpaceOnUse">
<stop stop-color="#F45293"/>
<stop offset="1" stop-color="#4462C9"/>
</linearGradient>
<linearGradient id="paint4_linear" x1="7.92203" y1="5.83333" x2="7.92204" y2="11.6667" gradientUnits="userSpaceOnUse">
<stop stop-color="#F45293"/>
<stop offset="1" stop-color="#4462C9"/>
</linearGradient>
<linearGradient id="paint5_linear" x1="7.94248" y1="8.125" x2="7.94248" y2="9.375" gradientUnits="userSpaceOnUse">
<stop stop-color="#F45293"/>
<stop offset="1" stop-color="#4462C9"/>
</linearGradient>
</defs>
</svg>
