<svg width="438" height="438" viewBox="0 0 438 438" fill="none" xmlns="http://www.w3.org/2000/svg">
<g clip-path="url(#clip0)">
<path d="M438 334.982H0V335.201H438V334.982Z" fill="#EBEBEB"/>
<path d="M114.204 343.322H45.9551V343.541H114.204V343.322Z" fill="#EBEBEB"/>
<path d="M394.113 349.988H360.912V350.207H394.113V349.988Z" fill="#EBEBEB"/>
<path d="M131.891 351.46H115.08V351.679H131.891V351.46Z" fill="#EBEBEB"/>
<path d="M214.935 340.948H177.101V341.167H214.935V340.948Z" fill="#EBEBEB"/>
<path d="M228.277 340.948H222.731V341.167H228.277V340.948Z" fill="#EBEBEB"/>
<path d="M324.9 346.292H287.039V346.511H324.9V346.292Z" fill="#EBEBEB"/>
<path d="M207.612 295.913H38.4649C37.1398 295.91 35.8698 295.382 34.9336 294.445C33.9975 293.507 33.4717 292.236 33.4717 290.911V53.1382C33.4832 51.8207 34.0141 50.5609 34.949 49.6326C35.8839 48.7042 37.1474 48.1822 38.4649 48.18H207.612C208.938 48.18 210.211 48.707 211.149 49.645C212.087 50.5831 212.614 51.8554 212.614 53.182V290.911C212.614 292.237 212.087 293.51 211.149 294.448C210.211 295.386 208.938 295.913 207.612 295.913ZM38.4649 48.3552C37.1979 48.3575 35.9836 48.8625 35.0885 49.7592C34.1934 50.6559 33.6907 51.8711 33.6907 53.1382V290.911C33.6907 292.178 34.1934 293.393 35.0885 294.29C35.9836 295.187 37.1979 295.691 38.4649 295.694H207.612C208.88 295.691 210.095 295.187 210.991 294.29C211.888 293.394 212.392 292.179 212.395 290.911V53.1382C212.392 51.8703 211.888 50.6551 210.991 49.7586C210.095 48.8622 208.88 48.3575 207.612 48.3552H38.4649Z" fill="#EBEBEB"/>
<path d="M397.1 295.913H227.944C226.618 295.91 225.348 295.383 224.41 294.445C223.472 293.508 222.945 292.237 222.942 290.911V53.1382C222.956 51.8199 223.489 50.5602 224.425 49.632C225.362 48.7039 226.626 48.1822 227.944 48.18H397.1C398.416 48.1846 399.677 48.7076 400.61 49.6357C401.543 50.5638 402.073 51.8222 402.084 53.1382V290.911C402.084 292.234 401.56 293.504 400.626 294.442C399.691 295.379 398.423 295.908 397.1 295.913ZM227.944 48.3552C226.677 48.3575 225.461 48.8622 224.565 49.7586C223.668 50.6551 223.164 51.8703 223.161 53.1382V290.911C223.164 292.179 223.668 293.394 224.565 294.29C225.461 295.187 226.677 295.691 227.944 295.694H397.1C398.368 295.691 399.583 295.187 400.479 294.29C401.376 293.394 401.881 292.179 401.883 290.911V53.1382C401.881 51.8703 401.376 50.6551 400.479 49.7586C399.583 48.8622 398.368 48.3575 397.1 48.3552H227.944Z" fill="#EBEBEB"/>
<path d="M126.004 166.659C151.365 166.659 171.924 146.1 171.924 120.739C171.924 95.3782 151.365 74.8192 126.004 74.8192C100.643 74.8192 80.084 95.3782 80.084 120.739C80.084 146.1 100.643 166.659 126.004 166.659Z" fill="#E0E0E0"/>
<path d="M129.49 166.659C154.851 166.659 175.41 146.1 175.41 120.739C175.41 95.3782 154.851 74.8192 129.49 74.8192C104.129 74.8192 83.5703 95.3782 83.5703 120.739C83.5703 146.1 104.129 166.659 129.49 166.659Z" fill="#F0F0F0"/>
<path d="M129.491 154.15C147.943 154.15 162.901 139.191 162.901 120.739C162.901 102.287 147.943 87.3284 129.491 87.3284C111.039 87.3284 96.0801 102.287 96.0801 120.739C96.0801 139.191 111.039 154.15 129.491 154.15Z" fill="white"/>
<path d="M149.472 141.483C149.2 141.48 148.94 141.374 148.744 141.185L128.772 121.475C128.597 121.279 128.504 121.024 128.51 120.762C128.516 120.5 128.622 120.25 128.806 120.063C128.99 119.876 129.238 119.766 129.5 119.755C129.762 119.743 130.018 119.832 130.217 120.003L150.199 139.722C150.338 139.866 150.433 140.048 150.471 140.246C150.509 140.443 150.488 140.647 150.412 140.833C150.336 141.019 150.207 141.178 150.042 141.292C149.876 141.406 149.681 141.469 149.48 141.474L149.472 141.483Z" fill="#F5F5F5"/>
<path d="M111.366 132.635C111.076 132.637 110.793 132.544 110.562 132.368C110.331 132.193 110.164 131.946 110.088 131.665C110.012 131.385 110.031 131.088 110.142 130.819C110.252 130.551 110.449 130.327 110.701 130.182L128.177 120.012V94.3452C128.177 93.9967 128.315 93.6625 128.562 93.4161C128.808 93.1696 129.142 93.0312 129.491 93.0312C129.839 93.0312 130.173 93.1696 130.42 93.4161C130.666 93.6625 130.805 93.9967 130.805 94.3452V120.765C130.803 120.996 130.742 121.222 130.627 121.421C130.511 121.621 130.346 121.787 130.148 121.904L112.023 132.451C111.824 132.569 111.598 132.633 111.366 132.635Z" fill="#E0E0E0"/>
<path d="M61.8543 334.982H194.393L181.665 202.084H49.1348L61.8543 334.982Z" fill="#F0F0F0"/>
<path d="M61.8545 334.982H59.5681L46.8398 202.084H49.135L61.8545 334.982Z" fill="#E0E0E0"/>
<path d="M72.7522 326.59H181.884L170.768 210.485H61.6357L72.7522 326.59Z" fill="#FAFAFA"/>
<path d="M105.681 255.004L96.0623 240.812L92.0765 210.485H80.4082L90.5873 243.686L102.282 256.983L114.844 284.998L100.18 304.401L100.328 326.59H103.561L101.686 305.12L116.482 285.182L105.681 255.004Z" fill="#E0E0E0"/>
<path d="M145.013 287.757L157.663 266.952L175.165 256.353L174.044 244.676L154.238 261.206L142.692 284.166L115.799 284.341L89.0283 264.85L66.6553 262.879L66.9619 266.111L88.4502 266.286L115.773 285.961L145.013 287.757Z" fill="#E0E0E0"/>
<path d="M136.604 270.272L120.1 240.453L129.797 210.485H141.474L126.118 243.326L140.388 272.252L115.86 284.998L136.341 310.025L170.014 326.59H166.782L134.974 310.743L114.861 285.182L136.604 270.272Z" fill="#E0E0E0"/>
<path d="M329.288 225.833H260.207L256.011 177.451H325.092L329.288 225.833Z" fill="#E6E6E6"/>
<path d="M332.862 225.833H263.781L259.585 177.451H328.675L332.862 225.833Z" fill="#F0F0F0"/>
<path d="M273.225 215.443L270.921 187.841H319.232L321.527 215.443H273.225Z" fill="white"/>
<path d="M370.505 225.833H353.055V334.982H370.505V225.833Z" fill="#E6E6E6"/>
<path d="M365.914 334.982H370.504V326.582H361.104L365.914 334.982Z" fill="#FAFAFA"/>
<path d="M240.313 225.833H222.863V334.982H240.313V225.833Z" fill="#E6E6E6"/>
<path d="M370.504 225.833H236.31V332.714H370.504V225.833Z" fill="#FAFAFA"/>
<path d="M367.376 260.321H239.48V230.134H367.376V260.321ZM240.356 259.445H366.5V231.01H240.356V259.445Z" fill="#E6E6E6"/>
<path d="M339.45 244.789H270.439C265.814 244.789 261.355 241.058 258.175 234.54L257.877 233.918H351.986L351.679 234.54C348.543 241.058 344.084 244.789 339.45 244.789ZM259.296 234.768C262.257 240.576 266.304 243.887 270.421 243.887H339.45C343.585 243.887 347.623 240.576 350.584 234.768H259.296Z" fill="#E6E6E6"/>
<path d="M240.9 334.982H236.31V326.582H245.709L240.9 334.982Z" fill="#FAFAFA"/>
<path d="M367.376 294.336H239.48V264.184H367.376V294.336ZM240.356 293.46H366.5V265.06H240.356V293.46Z" fill="#E6E6E6"/>
<path d="M339.45 278.84H270.439C265.814 278.84 261.355 275.099 258.175 268.59L257.877 267.96H351.986L351.679 268.59C348.543 275.064 344.084 278.84 339.45 278.84ZM259.296 268.836C262.257 274.644 266.304 277.964 270.421 277.964H339.45C343.585 277.964 347.623 274.644 350.584 268.836H259.296Z" fill="#E6E6E6"/>
<path d="M367.376 328.412H239.48V298.225H367.376V328.412ZM240.356 327.536H366.5V299.101H240.356V327.536Z" fill="#E6E6E6"/>
<path d="M339.45 312.881H270.439C265.814 312.881 261.355 309.149 258.175 302.64L257.877 302.01H351.986L351.679 302.64C348.543 309.149 344.084 312.881 339.45 312.881ZM259.296 302.886C262.257 308.694 266.304 312.005 270.421 312.005H339.45C343.585 312.005 347.623 308.694 350.584 302.886H259.296Z" fill="#E6E6E6"/>
<path d="M219 374.543C312.804 374.543 388.848 370.103 388.848 364.626C388.848 359.15 312.804 354.71 219 354.71C125.196 354.71 49.1523 359.15 49.1523 364.626C49.1523 370.103 125.196 374.543 219 374.543Z" fill="#F5F5F5"/>
<path d="M196.521 358.004H189.487L188.576 341.719H195.61L196.521 358.004Z" fill="#FF8B7B"/>
<path d="M196.74 356.628H188.173C188.108 356.625 188.043 356.635 187.982 356.657C187.921 356.68 187.865 356.715 187.818 356.76C187.771 356.806 187.734 356.86 187.709 356.92C187.684 356.98 187.672 357.045 187.674 357.11L187.586 363.365C187.604 363.697 187.746 364.009 187.985 364.24C188.224 364.471 188.542 364.603 188.874 364.609C191.624 364.565 193.604 364.399 197.073 364.399C199.21 364.399 203.731 364.626 206.709 364.626C209.687 364.626 209.442 361.709 208.181 361.438C202.513 360.255 200.06 358.626 198.002 357.058C197.639 356.782 197.196 356.631 196.74 356.628Z" fill="#263238"/>
<path opacity="0.2" d="M195.61 341.728H188.576L189.049 350.12H196.083L195.61 341.728Z" fill="black"/>
<path d="M183.144 196.898C183.144 196.898 194.2 248.074 196.232 268.617C198.448 291.104 197.59 347.93 197.59 347.93H186.5C186.5 347.93 180.692 293.039 178.572 271.113C176.154 246.138 157.802 200.315 157.802 200.315L183.144 196.898Z" fill="#7D50DE"/>
<path opacity="0.4" d="M169.602 213.744C167.85 210.065 165.222 211.694 163.05 214.217C165.967 222.294 169.629 232.963 172.686 243.624C173.562 232.394 172.572 219.981 169.602 213.744Z" fill="black"/>
<path d="M198.475 348.21H185.781L184.967 343.681L199.105 343.392L198.475 348.21Z" fill="#263238"/>
<path d="M199.325 357.863C198.687 357.844 198.053 357.759 197.433 357.609C197.397 357.601 197.364 357.583 197.337 357.559C197.309 357.534 197.288 357.504 197.275 357.469C197.264 357.44 197.263 357.409 197.271 357.379C197.278 357.349 197.295 357.323 197.319 357.303C197.547 357.145 199.518 355.752 200.385 356.147C200.479 356.192 200.562 356.258 200.627 356.34C200.692 356.422 200.738 356.518 200.762 356.62C200.816 356.766 200.83 356.925 200.802 357.079C200.775 357.233 200.706 357.377 200.604 357.496C200.238 357.774 199.782 357.905 199.325 357.863ZM197.862 357.373C199.106 357.609 200.017 357.566 200.332 357.242C200.404 357.162 200.452 357.064 200.471 356.959C200.489 356.853 200.478 356.745 200.437 356.646C200.431 356.603 200.414 356.562 200.388 356.527C200.362 356.492 200.328 356.464 200.289 356.444C199.842 356.234 198.677 356.839 197.862 357.408V357.373Z" fill="#7D50DE"/>
<path d="M197.468 357.609H197.371C197.345 357.593 197.321 357.572 197.303 357.546C197.285 357.52 197.273 357.491 197.266 357.46C197.266 357.373 197.003 355.341 197.678 354.675C197.764 354.589 197.87 354.526 197.985 354.489C198.101 354.452 198.224 354.444 198.344 354.465C198.478 354.468 198.608 354.511 198.718 354.587C198.829 354.663 198.915 354.77 198.966 354.894C199.281 355.682 198.195 357.224 197.547 357.618L197.468 357.609ZM198.344 354.762C198.278 354.76 198.212 354.772 198.152 354.798C198.091 354.823 198.037 354.862 197.993 354.911C197.555 355.332 197.573 356.514 197.617 357.11C198.23 356.558 198.878 355.358 198.694 354.938C198.694 354.894 198.642 354.789 198.414 354.762H198.344Z" fill="#7D50DE"/>
<path d="M145.994 358.004H153.02L155.578 341.719H148.552L145.994 358.004Z" fill="#FF8B7B"/>
<path d="M154.018 356.628H145.416C145.276 356.63 145.14 356.679 145.031 356.766C144.921 356.853 144.844 356.974 144.811 357.11L143.427 363.365C143.394 363.516 143.396 363.674 143.432 363.824C143.468 363.975 143.539 364.116 143.637 364.236C143.736 364.356 143.861 364.451 144.002 364.516C144.143 364.581 144.297 364.612 144.452 364.609C147.211 364.565 149.226 364.398 152.704 364.398C154.841 364.398 159.922 364.626 162.874 364.626C165.826 364.626 166.212 361.709 165.003 361.438C159.58 360.255 156.865 358.626 155.13 357.058C154.821 356.789 154.428 356.637 154.018 356.628Z" fill="#263238"/>
<path d="M179.922 142.613C180.342 143.743 180.868 145.057 181.358 146.292C181.849 147.527 182.392 148.78 182.935 150.015C184.021 152.477 185.169 154.903 186.395 157.26C187.594 159.571 188.916 161.817 190.355 163.987C191.674 165.995 193.214 167.849 194.945 169.515L195.558 170.04C195.76 170.207 195.952 170.338 196.145 170.496C196.563 170.802 197.002 171.077 197.459 171.319C198.444 171.87 199.479 172.325 200.551 172.677C202.936 173.439 205.393 173.95 207.883 174.201C210.528 174.49 213.187 174.618 215.846 174.587C217.195 174.587 218.553 174.587 219.911 174.49C221.269 174.394 222.662 174.315 223.932 174.21L225.106 179.352C223.625 179.843 222.25 180.228 220.804 180.552C219.359 180.876 217.931 181.209 216.468 181.428C213.513 181.943 210.523 182.236 207.524 182.304C204.372 182.356 201.225 182.03 198.151 181.332C196.494 180.955 194.877 180.419 193.324 179.729C192.507 179.366 191.714 178.951 190.95 178.485C190.565 178.24 190.171 177.994 189.803 177.74L188.752 176.952C186.228 174.915 183.978 172.559 182.059 169.944C180.239 167.51 178.583 164.958 177.101 162.305C175.641 159.701 174.312 157.052 173.115 154.36C172.531 153.011 171.947 151.653 171.363 150.287C170.802 148.902 170.312 147.58 169.804 146.055L179.922 142.613Z" fill="#FF8B7B"/>
<path d="M162.06 143.296C161.473 151.119 176.461 165.073 176.461 165.073L187.359 153.3C186.266 149.366 184.332 145.717 181.691 142.604C173.973 133.529 162.673 134.545 162.06 143.296Z" fill="#263238"/>
<path d="M223.073 174.184H229.538L227.786 181.63C227.786 181.63 225.158 181.367 222.004 178.511L223.073 174.184Z" fill="#FF8B7B"/>
<path d="M233.428 176.54L231.781 180.114C231.671 180.34 231.51 180.537 231.311 180.689C231.112 180.841 230.88 180.944 230.633 180.99L227.804 181.568L229.556 174.122L232.044 174.228C232.311 174.239 232.571 174.316 232.801 174.453C233.03 174.589 233.223 174.781 233.36 175.01C233.497 175.24 233.575 175.5 233.587 175.767C233.599 176.034 233.544 176.3 233.428 176.54Z" fill="#FF8B7B"/>
<path opacity="0.2" d="M148.543 341.728H155.577L154.263 350.12H147.229L148.543 341.728Z" fill="black"/>
<path d="M137.532 147.825C144.724 172.152 144.934 196.68 145.88 201.918C151.346 201.191 171.932 198.414 183.154 196.899C185.055 166.65 179.273 147.843 176.295 140.405C175.835 139.271 175.066 138.289 174.074 137.572C173.083 136.855 171.909 136.431 170.688 136.349L168.892 136.253C167.859 136.253 166.746 136.183 165.59 136.192C164.95 136.192 164.302 136.192 163.645 136.236C158.323 136.655 153.029 137.381 147.79 138.408C146.8 138.592 145.792 138.802 144.82 139.021C143.848 139.24 143.068 139.45 142.192 139.669H142.078C141.238 139.897 140.453 140.291 139.768 140.827C139.082 141.363 138.511 142.03 138.088 142.79C137.664 143.55 137.397 144.387 137.301 145.251C137.206 146.116 137.284 146.991 137.532 147.825Z" fill="#263238"/>
<path opacity="0.4" d="M143.663 154.544L140.527 159.853C141.097 162.481 141.587 165.109 142.025 167.649C144.951 161.71 143.663 154.544 143.663 154.544Z" fill="black"/>
<path d="M169.943 198.686C169.943 198.686 171.152 252.56 169.505 273.102C167.692 295.589 156.935 347.93 156.935 347.93H145.818C145.818 347.93 149.699 295.44 151.504 273.513C153.562 248.547 145.88 201.927 145.88 201.927L169.943 198.686Z" fill="#7D50DE"/>
<path d="M157.373 348.21H144.671V343.681L158.862 343.392L157.373 348.21Z" fill="#263238"/>
<path d="M156.348 357.863C155.728 357.846 155.111 357.761 154.509 357.609C154.478 357.6 154.451 357.582 154.43 357.557C154.409 357.533 154.395 357.504 154.389 357.472C154.384 357.44 154.387 357.408 154.399 357.378C154.411 357.348 154.431 357.322 154.456 357.303C154.71 357.145 156.979 355.752 157.759 356.147C157.845 356.192 157.917 356.26 157.968 356.343C158.019 356.427 158.046 356.522 158.048 356.62C158.064 356.783 158.04 356.948 157.979 357.1C157.918 357.253 157.822 357.388 157.697 357.496C157.302 357.766 156.827 357.896 156.348 357.863ZM154.991 357.373C156.182 357.609 157.102 357.566 157.487 357.242C157.572 357.169 157.637 357.077 157.677 356.973C157.717 356.869 157.73 356.756 157.715 356.646C157.717 356.606 157.709 356.566 157.69 356.53C157.672 356.495 157.644 356.465 157.61 356.444C157.207 356.234 155.928 356.839 154.991 357.408V357.373Z" fill="#7D50DE"/>
<path d="M154.543 357.609C154.515 357.617 154.484 357.617 154.456 357.609C154.431 357.593 154.411 357.571 154.397 357.545C154.384 357.519 154.377 357.49 154.377 357.461C154.377 357.373 154.552 355.341 155.376 354.675C155.471 354.59 155.585 354.527 155.707 354.491C155.83 354.455 155.959 354.446 156.085 354.465C156.209 354.464 156.329 354.507 156.425 354.585C156.521 354.663 156.586 354.773 156.611 354.894C156.76 355.682 155.349 357.224 154.622 357.618L154.543 357.609ZM155.927 354.78C155.787 354.779 155.652 354.833 155.551 354.929C155.04 355.555 154.734 356.322 154.675 357.128C155.393 356.576 156.295 355.376 156.208 354.955C156.208 354.911 156.208 354.806 155.963 354.78H155.927Z" fill="#7D50DE"/>
<path d="M146.923 151.785C146.099 152.941 145.355 153.94 144.531 154.973C143.708 156.007 142.902 156.997 142.07 157.987C140.388 159.966 138.636 161.894 136.814 163.742C134.992 165.59 133.038 167.395 131.006 169.112C129.963 169.988 128.938 170.811 127.826 171.6C127.292 172.003 126.74 172.406 126.162 172.782L125.286 173.352L124.856 173.632L124.637 173.781L124.348 173.947C123.038 174.719 121.659 175.37 120.231 175.892C118.935 176.374 117.664 176.768 116.403 177.162C113.889 177.924 111.392 178.511 108.896 179.072C103.931 180.14 98.9129 180.947 93.8634 181.49L92.7334 176.33C97.385 174.692 102.089 173.045 106.679 171.381C108.974 170.548 111.243 169.672 113.433 168.753C114.52 168.297 115.588 167.824 116.578 167.334C117.461 166.918 118.31 166.435 119.119 165.888L119.224 165.809L119.39 165.678L119.714 165.415L120.371 164.898C120.818 164.557 121.247 164.189 121.676 163.803C122.552 163.067 123.428 162.288 124.243 161.499C125.913 159.882 127.551 158.2 129.157 156.454C130.743 154.702 132.32 152.897 133.844 151.057C134.615 150.181 135.377 149.218 136.122 148.281L138.277 145.53L146.923 151.785Z" fill="#FF8B7B"/>
<path d="M149.077 145.416C148.902 156.962 138.32 165.082 138.32 165.082L127.808 155.797C127.808 155.797 127.895 149.875 134.413 144.12C141.552 137.856 149.208 137.269 149.077 145.416Z" fill="#263238"/>
<path d="M95.186 176.803L89.1329 173.01L87.9766 181.919C87.9766 181.919 93.837 184.004 95.2912 181.043L95.186 176.803Z" fill="#FF8B7B"/>
<path d="M83.0444 176.488L82.9393 177.828C82.8747 178.698 83.137 179.561 83.6748 180.248C84.2127 180.935 84.9875 181.396 85.8476 181.542L88.0114 181.919L89.1677 173.01L86.2156 173.308C85.3983 173.383 84.6331 173.742 84.0536 174.323C83.4741 174.904 83.1169 175.67 83.0444 176.488Z" fill="#FF8B7B"/>
<g opacity="0.2">
<path opacity="0.2" d="M160.596 214.778C160.527 213.805 160.356 212.842 160.088 211.904C159.379 209.04 158.494 205.466 160.964 197.1C162.059 193.403 162.366 188.936 161.683 186.719C161.056 185.082 160.054 183.615 158.757 182.436C157.46 181.052 156.129 179.615 155.586 177.565C154.867 174.762 155.91 171.573 156.9 169.103L157.347 167.991C158.223 165.748 159.221 163.427 159.326 161.079C159.458 158.162 158.266 155.569 157.119 153.072C156.952 152.704 156.786 152.345 156.628 151.986C155.384 149.2 153.895 145.031 155.332 140.931C155.617 140.176 155.948 139.439 156.322 138.723C156.875 137.734 157.288 136.673 157.548 135.57C157.689 134.825 157.646 134.057 157.421 133.333C157.197 132.609 156.798 131.952 156.26 131.418C155.887 131.041 155.425 130.763 154.917 130.61C154.41 130.457 153.871 130.433 153.352 130.542L153.177 129.762C153.826 129.627 154.499 129.656 155.134 129.848C155.768 130.039 156.346 130.386 156.812 130.857C157.445 131.484 157.915 132.257 158.181 133.107C158.447 133.958 158.5 134.86 158.336 135.736C158.059 136.909 157.623 138.037 157.04 139.091C156.677 139.777 156.358 140.485 156.085 141.211C155.06 144.128 155.463 147.448 157.355 151.679C157.513 152.039 157.679 152.398 157.846 152.757C159.028 155.341 160.264 158.013 160.123 161.131C159.859 163.625 159.169 166.055 158.082 168.315L157.636 169.41C156.698 171.775 155.7 174.806 156.357 177.39C156.838 179.238 158.047 180.535 159.344 181.91C160.72 183.179 161.782 184.75 162.445 186.5C163.163 188.848 162.857 193.508 161.727 197.345C159.326 205.51 160.176 208.961 160.851 211.729C161.134 212.718 161.313 213.734 161.385 214.76L160.596 214.778Z" fill="white"/>
<path opacity="0.2" d="M150.557 212.465C150.487 211.492 150.317 210.529 150.049 209.592C149.34 206.727 148.455 203.153 150.925 194.787C152.012 191.082 152.327 186.623 151.644 184.407C151.013 182.771 150.012 181.305 148.718 180.123C147.421 178.739 146.09 177.302 145.547 175.253C144.828 172.449 145.871 169.252 146.861 166.79L147.307 165.678C148.227 163.435 149.182 161.114 149.287 158.766C149.419 155.849 148.227 153.256 147.08 150.751L146.58 149.665C145.336 146.888 143.856 142.718 145.293 138.618C145.578 137.86 145.909 137.12 146.283 136.402C146.837 135.417 147.25 134.358 147.509 133.257C147.65 132.512 147.607 131.745 147.382 131.021C147.158 130.297 146.759 129.639 146.221 129.105C145.848 128.728 145.386 128.45 144.878 128.297C144.37 128.144 143.832 128.121 143.313 128.229L143.138 127.449C143.787 127.312 144.46 127.34 145.096 127.531C145.731 127.723 146.308 128.071 146.773 128.544C147.407 129.171 147.876 129.944 148.14 130.795C148.405 131.645 148.456 132.548 148.289 133.424C148.019 134.598 147.583 135.728 146.992 136.779C146.636 137.466 146.32 138.174 146.046 138.899C145.021 141.816 145.424 145.136 147.316 149.358C147.474 149.717 147.64 150.076 147.807 150.435C148.989 153.063 150.216 155.691 150.084 158.819C149.82 161.312 149.13 163.742 148.043 166.002L147.597 167.097C146.659 169.453 145.661 172.493 146.318 175.077C146.791 176.926 148.008 178.222 149.296 179.598C150.678 180.863 151.743 182.435 152.406 184.188C153.124 186.535 152.818 191.196 151.687 195.033C149.278 203.188 150.137 206.648 150.811 209.417C151.095 210.405 151.274 211.421 151.346 212.448L150.557 212.465Z" fill="white"/>
<path opacity="0.2" d="M140.518 210.152C140.444 209.18 140.274 208.218 140.01 207.279C139.301 204.415 138.416 200.841 140.886 192.475C141.973 188.769 142.279 184.31 141.605 182.094C140.974 180.459 139.973 178.992 138.679 177.81C137.374 176.426 136.051 174.99 135.508 172.94C134.789 170.137 135.832 166.939 136.822 164.469C136.962 164.101 137.119 163.733 137.268 163.365C138.188 161.114 139.143 158.793 139.248 156.454C139.371 153.537 138.188 150.944 137.041 148.447L136.541 147.352C135.297 144.575 133.817 140.397 135.254 136.306C135.535 135.546 135.866 134.806 136.243 134.089C136.797 133.103 137.21 132.045 137.47 130.944C137.611 130.2 137.568 129.432 137.343 128.708C137.119 127.984 136.72 127.326 136.182 126.792C135.809 126.415 135.347 126.138 134.839 125.985C134.331 125.832 133.793 125.808 133.274 125.916L133.099 125.137C133.748 124.999 134.421 125.027 135.056 125.219C135.692 125.41 136.269 125.758 136.734 126.232C137.365 126.858 137.834 127.629 138.098 128.478C138.362 129.327 138.414 130.228 138.25 131.102C137.982 132.28 137.545 133.413 136.953 134.466C136.595 135.153 136.279 135.861 136.007 136.586C134.982 139.503 135.385 142.823 137.268 147.045C137.435 147.405 137.601 147.764 137.759 148.132C138.95 150.716 140.177 153.388 140.045 156.497C139.779 158.991 139.089 161.42 138.004 163.681L137.557 164.784C136.611 167.141 135.613 170.181 136.279 172.765C136.752 174.613 137.969 175.91 139.257 177.285C140.639 178.55 141.704 180.123 142.367 181.875C143.085 184.223 142.778 188.883 141.648 192.711C139.239 200.876 140.098 204.327 140.772 207.104C141.056 208.093 141.235 209.109 141.307 210.135L140.518 210.152Z" fill="white"/>
<path opacity="0.2" d="M170.636 217.09C170.569 216.117 170.399 215.154 170.127 214.217C169.418 211.353 168.542 207.787 171.003 199.413C172.098 195.716 172.405 191.248 171.722 189.032C171.097 187.397 170.094 185.932 168.796 184.757C167.499 183.364 166.168 181.936 165.625 179.878C164.906 177.083 165.949 173.886 166.939 171.416L167.394 170.303C168.437 168.127 169.104 165.79 169.365 163.392C169.497 160.474 168.305 157.881 167.158 155.385C166.991 155.017 166.825 154.658 166.667 154.299C165.423 151.513 163.934 147.343 165.371 143.244C165.658 142.489 165.988 141.752 166.361 141.036C166.914 140.047 167.327 138.986 167.587 137.882C167.728 137.138 167.685 136.37 167.46 135.646C167.236 134.922 166.837 134.264 166.299 133.73C165.926 133.353 165.464 133.075 164.957 132.922C164.449 132.769 163.91 132.746 163.391 132.854L163.216 132.075C163.865 131.939 164.538 131.968 165.173 132.159C165.808 132.35 166.385 132.698 166.851 133.17C167.483 133.797 167.952 134.57 168.218 135.42C168.483 136.271 168.537 137.173 168.375 138.049C168.098 139.221 167.662 140.35 167.079 141.404C166.72 142.091 166.401 142.799 166.124 143.524C165.099 146.441 165.502 149.761 167.394 154.036C167.552 154.395 167.718 154.754 167.885 155.113C169.076 157.698 170.303 160.369 170.162 163.488C170.057 165.976 169.076 168.358 168.13 170.671C167.972 171.039 167.824 171.407 167.683 171.775C166.737 174.131 165.739 177.162 166.404 179.746C166.877 181.595 168.095 182.891 169.383 184.267C170.759 185.535 171.821 187.107 172.484 188.857C173.202 191.213 172.896 195.865 171.774 199.702C169.365 207.866 170.215 211.317 170.898 214.086C171.181 215.075 171.36 216.091 171.433 217.117L170.636 217.09Z" fill="white"/>
<path opacity="0.2" d="M180.675 219.403C180.608 218.43 180.438 217.467 180.167 216.53C179.457 213.665 178.581 210.1 181.043 201.725C182.138 198.029 182.444 193.561 181.761 191.345C181.136 189.709 180.133 188.244 178.835 187.07C177.539 185.677 176.207 184.249 175.664 182.199C174.946 179.396 175.988 176.199 176.978 173.728C177.127 173.36 177.276 172.992 177.433 172.625C178.309 170.373 179.308 168.052 179.404 165.704C179.536 162.787 178.353 160.203 177.197 157.697C177.03 157.338 176.864 156.97 176.706 156.611C175.462 153.826 173.973 149.656 175.419 145.556C175.698 144.799 176.029 144.061 176.408 143.349C176.959 142.359 177.369 141.298 177.626 140.195C177.769 139.45 177.726 138.682 177.502 137.958C177.277 137.234 176.878 136.576 176.338 136.043C175.967 135.666 175.507 135.388 175 135.235C174.494 135.082 173.957 135.059 173.439 135.167L173.255 134.387C173.905 134.25 174.579 134.279 175.214 134.472C175.85 134.665 176.426 135.016 176.89 135.491C177.525 136.115 177.995 136.886 178.261 137.736C178.527 138.585 178.58 139.487 178.415 140.361C178.141 141.535 177.705 142.664 177.118 143.717C176.759 144.404 176.44 145.112 176.163 145.836C175.147 148.754 175.55 152.082 177.433 156.305C177.591 156.664 177.758 157.023 177.924 157.382C179.115 160.01 180.342 162.638 180.202 165.757C180.096 168.245 179.115 170.636 178.169 172.94C178.02 173.308 177.863 173.676 177.722 174.044C176.776 176.4 175.778 179.44 176.444 182.015C176.917 183.872 178.134 185.169 179.422 186.535C180.8 187.805 181.862 189.38 182.523 191.134C183.25 193.482 182.943 198.142 181.813 201.971C179.404 210.135 180.254 213.586 180.937 216.363C181.214 217.353 181.39 218.369 181.463 219.394L180.675 219.403Z" fill="white"/>
<path opacity="0.2" d="M190.722 221.716C190.649 220.746 190.475 219.786 190.206 218.851C189.505 215.978 188.62 212.413 191.082 204.038C192.168 200.341 192.474 195.882 191.791 193.657C191.167 192.024 190.168 190.559 188.874 189.382C187.569 187.998 186.246 186.562 185.703 184.512C184.985 181.709 186.027 178.511 187.008 176.041C187.157 175.673 187.315 175.305 187.464 174.928C188.383 172.686 189.338 170.365 189.443 168.017C189.566 165.1 188.383 162.516 187.236 160.01L186.737 158.924C185.493 156.138 184.003 151.969 185.449 147.878C185.727 147.117 186.058 146.376 186.439 145.661C186.992 144.672 187.405 143.611 187.665 142.508C187.805 141.762 187.759 140.994 187.533 140.27C187.307 139.547 186.907 138.889 186.369 138.355C185.997 137.979 185.537 137.701 185.031 137.548C184.524 137.395 183.987 137.371 183.469 137.479L183.294 136.709C183.942 136.569 184.614 136.596 185.249 136.787C185.883 136.979 186.459 137.328 186.921 137.804C187.555 138.428 188.026 139.199 188.292 140.048C188.557 140.898 188.61 141.8 188.445 142.674C188.17 143.85 187.734 144.982 187.148 146.038C186.785 146.722 186.469 147.431 186.202 148.158C185.177 151.066 185.58 154.395 187.464 158.617C187.621 158.977 187.788 159.336 187.954 159.695C189.146 162.323 190.372 164.951 190.232 168.069C190.127 170.557 189.146 172.94 188.2 175.253L187.753 176.356C186.807 178.713 185.808 181.753 186.474 184.328C186.947 186.185 188.164 187.482 189.452 188.857C190.832 190.122 191.895 191.694 192.553 193.447C193.28 195.795 192.974 200.455 191.844 204.283C189.435 212.448 190.284 215.899 190.968 218.676C191.248 219.666 191.427 220.681 191.502 221.707L190.722 221.716Z" fill="white"/>
</g>
<path d="M146.957 120.319C148.648 125.286 150.899 134.492 147.833 138.373C150.969 140.747 155.025 143.445 161.104 142.841C167.184 142.236 165.563 138.215 163.671 136.236C157.802 135.649 157.381 131.409 157.837 127.309L146.957 120.319Z" fill="#FF8B7B"/>
<path opacity="0.2" d="M151.381 123.174L157.802 127.309C157.682 128.262 157.644 129.223 157.688 130.182C155.472 130.182 152.169 128.185 151.635 125.942C151.381 125.043 151.295 124.105 151.381 123.174Z" fill="black"/>
<path d="M155.122 107.862C153.711 101.231 159.668 99.1019 162.664 103.298C165.66 107.494 157.067 117.025 155.122 107.862Z" fill="#263238"/>
<path d="M143.094 114.87C145.844 121.282 147.132 125.172 151.652 127.353C158.45 130.629 165.467 124.725 164.678 117.612C163.978 111.217 159.589 101.844 152.231 101.502C150.61 101.426 148.996 101.767 147.544 102.49C146.091 103.214 144.848 104.297 143.933 105.637C143.017 106.977 142.459 108.528 142.312 110.144C142.166 111.76 142.435 113.387 143.094 114.87Z" fill="#FF8B7B"/>
<path d="M143.427 120.196C145.495 119.539 146.993 113.968 145.425 109.824C149.139 108.677 159.966 106.162 161.105 96.8418C161.517 93.478 156.892 93.3378 156.287 96.1585C154.64 93.7495 146.958 93.732 147.624 97.9105C141.421 93.1801 128.159 99.5662 137.725 106.854C129.893 108.817 129.052 115.965 143.427 120.196Z" fill="#263238"/>
<path d="M132.118 108.055C131.912 108.054 131.713 107.982 131.555 107.849C131.398 107.716 131.292 107.533 131.256 107.33C131.221 107.127 131.258 106.918 131.361 106.74C131.464 106.562 131.627 106.425 131.82 106.355C136.787 104.603 139.844 106.355 139.976 106.434C140.142 106.565 140.255 106.751 140.294 106.959C140.334 107.167 140.297 107.382 140.19 107.564C140.083 107.747 139.914 107.885 139.714 107.952C139.513 108.02 139.295 108.012 139.1 107.932C138.986 107.871 136.559 106.522 132.425 108.002C132.326 108.038 132.223 108.055 132.118 108.055Z" fill="#263238"/>
<path d="M155.664 103.657C155.432 103.678 155.201 103.606 155.022 103.456C154.843 103.307 154.731 103.092 154.71 102.86C154.689 102.628 154.761 102.396 154.91 102.217C155.06 102.038 155.274 101.926 155.507 101.905C155.568 101.905 161.113 100.845 161.639 97.2185C161.674 96.9861 161.799 96.7772 161.988 96.6375C162.177 96.4979 162.414 96.439 162.646 96.4739C162.878 96.5087 163.087 96.6344 163.227 96.8233C163.367 97.0123 163.426 97.2489 163.391 97.4813C162.637 102.352 156.076 103.613 155.805 103.613L155.664 103.657Z" fill="#263238"/>
<path d="M141.824 121.527C142.377 122.198 143.057 122.753 143.825 123.161C144.594 123.568 145.435 123.82 146.3 123.901C148.613 124.112 149.349 121.93 148.35 119.968C147.474 118.216 145.161 115.965 143.006 116.674C140.852 117.384 140.466 119.854 141.824 121.527Z" fill="#FF8B7B"/>
<path d="M153.694 113.135C153.886 113.67 154.324 114.011 154.675 113.871C155.025 113.731 155.148 113.214 154.955 112.68C154.762 112.145 154.324 111.804 153.974 111.944C153.623 112.084 153.501 112.601 153.694 113.135Z" fill="#263238"/>
<path d="M159.73 110.972C159.922 111.506 160.36 111.848 160.702 111.707C161.044 111.567 161.184 111.05 160.991 110.516C160.798 109.982 160.36 109.64 160.01 109.772C159.66 109.903 159.537 110.437 159.73 110.972Z" fill="#263238"/>
<path d="M157.907 111.927C159.129 113.328 160.538 114.554 162.095 115.571C161.823 115.963 161.47 116.291 161.058 116.532C160.646 116.772 160.187 116.92 159.712 116.964L157.907 111.927Z" fill="#FF5652"/>
<path d="M156.217 119.399C156.694 118.983 157.251 118.668 157.853 118.472C158.455 118.276 159.09 118.204 159.721 118.26C159.743 118.263 159.764 118.271 159.783 118.283C159.802 118.294 159.818 118.309 159.831 118.327C159.844 118.345 159.853 118.365 159.859 118.387C159.864 118.409 159.865 118.431 159.861 118.453C159.858 118.475 159.85 118.496 159.838 118.514C159.827 118.533 159.812 118.55 159.794 118.563C159.776 118.576 159.756 118.585 159.734 118.59C159.713 118.595 159.69 118.596 159.668 118.593C158.965 118.537 158.258 118.647 157.605 118.915C156.952 119.183 156.372 119.601 155.91 120.135C155.895 120.15 155.876 120.163 155.856 120.171C155.836 120.18 155.814 120.184 155.792 120.184C155.77 120.184 155.748 120.18 155.728 120.171C155.708 120.163 155.689 120.15 155.674 120.135C155.644 120.102 155.628 120.06 155.628 120.016C155.628 119.973 155.644 119.93 155.674 119.898C155.844 119.72 156.026 119.554 156.217 119.399Z" fill="#263238"/>
<path d="M152.835 109.202C152.889 109.185 152.948 109.185 153.002 109.202C153.087 109.229 153.159 109.287 153.201 109.366C153.244 109.445 153.254 109.537 153.229 109.623C153.09 110.133 152.83 110.602 152.472 110.99C152.114 111.379 151.668 111.676 151.171 111.856C151.091 111.869 151.01 111.853 150.942 111.81C150.874 111.768 150.823 111.702 150.8 111.625C150.776 111.548 150.781 111.465 150.814 111.392C150.847 111.319 150.905 111.259 150.978 111.226C151.366 111.081 151.714 110.847 151.994 110.543C152.274 110.238 152.478 109.872 152.59 109.474C152.599 109.409 152.627 109.348 152.671 109.3C152.714 109.252 152.772 109.217 152.835 109.202Z" fill="#263238"/>
<path d="M158.705 106.872C158.753 106.846 158.807 106.832 158.862 106.832C158.917 106.832 158.971 106.846 159.02 106.872C159.381 107.082 159.788 107.202 160.205 107.224C160.623 107.245 161.039 107.167 161.42 106.995C161.498 106.952 161.59 106.941 161.675 106.966C161.761 106.991 161.833 107.048 161.876 107.126C161.919 107.204 161.929 107.296 161.904 107.381C161.88 107.466 161.822 107.539 161.744 107.582C161.264 107.805 160.738 107.91 160.21 107.889C159.681 107.868 159.165 107.72 158.705 107.459C158.629 107.416 158.572 107.346 158.548 107.262C158.523 107.179 158.532 107.089 158.573 107.012C158.603 106.954 158.648 106.905 158.705 106.872Z" fill="#263238"/>
<path d="M131.873 210.24C130.261 206.736 129.394 199.614 129.394 199.614L136.402 190.688L132.241 165.17L125.268 152.345L130.927 140.081L124.672 129.569C125.051 127.975 125.54 126.409 126.135 124.883L122.272 121.694L116.14 129.806L122.272 201.69L128.579 215.496L131.873 210.24Z" fill="#7D50DE"/>
<path opacity="0.2" d="M131.873 210.24C130.261 206.736 129.394 199.614 129.394 199.614L136.402 190.688L132.241 165.17L125.268 152.345L130.927 140.081L124.672 129.569C125.051 127.975 125.54 126.409 126.135 124.883L122.272 121.694L116.14 129.806L122.272 201.69L128.579 215.496L131.873 210.24Z" fill="black"/>
<path d="M125.854 203.819L133.519 193.999L128.947 165.967L121.308 151.907L127.528 138.39L120.651 126.801C121.069 125.049 121.608 123.328 122.263 121.65C115.581 116.375 107.108 113.909 98.6382 114.773C90.1689 115.637 82.3686 119.764 76.8892 126.28C71.4099 132.795 68.6819 141.188 69.283 149.68C69.8841 158.172 73.7672 166.096 80.1097 171.775L128.579 215.496C126.809 211.598 125.854 203.819 125.854 203.819Z" fill="#F45293"/>
<path opacity="0.2" d="M117.935 118.768C116.586 125.154 111.645 129.981 109.771 131.812C109.35 132.232 108.895 132.644 108.492 133.056C106.144 135.307 103.717 137.628 103.131 139.705C102.675 141.273 103.078 143.533 103.498 145.924C103.595 146.432 103.682 146.94 103.77 147.44C104.436 151.46 104.9 157.382 101.273 162.419C98.7768 165.923 95.2728 167.675 92.1806 169.313C90.2884 170.294 88.3349 171.311 87.5027 172.353C86.6517 173.761 86.0889 175.324 85.8471 176.952L80.0742 171.696C78.5669 170.337 77.1886 168.841 75.957 167.228C76.4477 166.258 77.0346 165.339 77.709 164.487C80.1881 161.368 83.4906 159.66 86.399 158.144C88.3349 157.137 90.341 156.094 91.0943 155.052C91.8477 154.01 91.8827 152.31 91.4009 149.428C91.3308 148.973 91.2432 148.552 91.1644 148.053C90.5687 144.706 89.8329 140.545 91.0768 136.192C92.601 130.874 96.4292 127.204 99.8368 123.928L101.037 122.771C105.417 118.497 105.881 116.149 105.776 115.133C105.766 115.011 105.746 114.891 105.715 114.774C110.015 115.271 114.171 116.63 117.935 118.768Z" fill="white"/>
<path d="M194.051 116.701H189.557L187.657 121.764L193.876 133.721L186.868 146.861L193.692 161.333L196.679 189.593L188.471 198.966C188.471 198.966 188.979 206.789 190.53 210.774L190.714 210.958H195.208L208.146 185.712L212.815 136.192L194.051 116.701Z" fill="#7D50DE"/>
<path opacity="0.2" d="M194.051 116.701H189.557L187.657 121.764L193.876 133.721L186.868 146.861L193.692 161.333L196.679 189.593L188.471 198.966C188.471 198.966 188.979 206.789 190.53 210.774L190.714 210.958H195.208L208.146 185.712L212.815 136.192L194.051 116.701Z" fill="black"/>
<path d="M241.828 164.854C248.007 158.741 251.504 150.423 251.55 141.731C251.596 133.038 248.187 124.684 242.073 118.505C235.959 112.326 227.641 108.829 218.949 108.783C210.257 108.737 201.903 112.146 195.724 118.26C195.181 117.708 194.62 117.191 194.051 116.692C193.303 118.335 192.668 120.026 192.15 121.755L198.369 133.713L191.361 146.853L198.185 161.324L201.173 189.584L192.964 198.957C192.964 198.957 193.472 206.78 195.023 210.766L195.207 210.95L241.828 164.854Z" fill="#F45293"/>
<path opacity="0.2" d="M242.073 118.514C240.682 117.101 239.163 115.819 237.536 114.686C237.317 114.931 237.115 115.185 236.922 115.448C235.679 117.307 234.807 119.389 234.356 121.58C234.219 122.194 234.038 122.797 233.813 123.385C233.401 124.322 231.815 126.118 225.885 127.624L224.264 128.027C219.718 129.14 214.567 130.393 210.59 134.229C207.322 137.374 205.877 141.343 204.712 144.531C204.554 144.969 204.397 145.407 204.23 145.845C203.205 148.578 202.224 150.076 201.147 150.558C200.069 151.04 197.713 150.979 195.531 150.873C194.787 150.873 194.025 150.803 193.236 150.786L198.221 161.35L198.449 163.47C201.133 163.537 203.801 163.026 206.271 161.972C211.939 159.432 214.506 154.088 215.907 150.26L216.442 148.815C217.274 146.529 218.053 144.374 219.227 143.244C220.787 141.754 224.045 140.957 227.199 140.178L228.951 139.748C232.096 138.951 241.653 136.516 245.236 128.474C245.747 127.251 246.157 125.989 246.462 124.699C246.462 124.558 246.532 124.401 246.576 124.243C245.293 122.172 243.783 120.25 242.073 118.514Z" fill="white"/>
<path d="M415.09 269.456L413.834 292.353L414.805 292.406L416.061 269.509L415.09 269.456Z" fill="#7D50DE"/>
<path d="M416.163 250.032L415.516 261.831L416.487 261.884L417.134 250.086L416.163 250.032Z" fill="#7D50DE"/>
<path d="M395.665 335.999H281.669C279.944 336.02 278.234 335.684 276.645 335.013C275.057 334.342 273.624 333.35 272.437 332.099C271.25 330.848 270.334 329.365 269.747 327.744C269.16 326.122 268.915 324.397 269.026 322.676L282.155 83.3237C282.399 79.7366 283.986 76.3733 286.6 73.904C289.213 71.4348 292.661 70.041 296.256 70.0004H410.263C411.982 69.9876 413.687 70.3291 415.269 71.0037C416.851 71.6783 418.277 72.6715 419.459 73.9215C420.64 75.1714 421.552 76.6513 422.136 78.2689C422.721 79.8865 422.966 81.6072 422.856 83.3237L409.718 322.676C409.476 326.255 407.897 329.613 405.293 332.082C402.69 334.55 399.253 335.949 395.665 335.999Z" fill="#7D50DE"/>
<path opacity="0.8" d="M388.77 335.999H281.669C279.944 336.02 278.234 335.685 276.645 335.013C275.057 334.342 273.624 333.35 272.437 332.099C271.25 330.848 270.334 329.365 269.747 327.744C269.16 326.122 268.915 324.397 269.026 322.676L282.155 83.3237C282.399 79.7366 283.986 76.3733 286.6 73.9041C289.213 71.4348 292.661 70.041 296.256 70.0004H403.367C405.088 69.9862 406.793 70.3267 408.376 71.0008C409.958 71.6749 411.385 72.6681 412.567 73.9184C413.749 75.1686 414.66 76.6491 415.244 78.2673C415.828 79.8856 416.072 81.6069 415.961 83.3237L402.833 322.676C402.587 326.256 401.004 329.612 398.4 332.08C395.795 334.548 392.358 335.947 388.77 335.999Z" fill="white"/>
<path d="M335.691 113.393H304.931C304.204 113.399 303.485 113.255 302.817 112.97C302.149 112.684 301.547 112.264 301.048 111.736C300.55 111.207 300.166 110.582 299.92 109.898C299.675 109.214 299.573 108.487 299.621 107.763C299.723 106.252 300.39 104.835 301.49 103.794C302.589 102.752 304.039 102.163 305.553 102.142H336.313C337.039 102.135 337.759 102.278 338.427 102.562C339.095 102.846 339.697 103.265 340.196 103.793C340.694 104.32 341.078 104.946 341.324 105.629C341.57 106.312 341.672 107.038 341.623 107.763C341.521 109.274 340.854 110.692 339.756 111.735C338.657 112.778 337.206 113.37 335.691 113.393Z" fill="white"/>
<path d="M341.624 107.763C341.449 110.489 340.249 113.049 338.265 114.927C336.28 116.805 333.658 117.863 330.926 117.886C329.618 117.902 328.32 117.646 327.116 117.135C325.911 116.624 324.825 115.87 323.926 114.919C323.027 113.968 322.335 112.841 321.893 111.609C321.451 110.378 321.268 109.068 321.357 107.763C321.531 105.036 322.731 102.476 324.716 100.598C326.7 98.7201 329.322 97.6629 332.054 97.6389C333.363 97.6239 334.66 97.8797 335.865 98.3905C337.069 98.9013 338.155 99.6559 339.054 100.607C339.953 101.558 340.645 102.684 341.088 103.916C341.53 105.147 341.712 106.457 341.624 107.763Z" fill="#7D50DE"/>
<path d="M333.716 149.386H302.956C302.23 149.391 301.51 149.247 300.842 148.962C300.174 148.677 299.572 148.257 299.074 147.728C298.575 147.2 298.191 146.574 297.946 145.89C297.7 145.207 297.598 144.48 297.646 143.755C297.749 142.244 298.416 140.828 299.515 139.786C300.614 138.745 302.065 138.155 303.579 138.134H334.339C335.065 138.127 335.784 138.27 336.452 138.554C337.12 138.838 337.723 139.257 338.221 139.785C338.72 140.313 339.104 140.938 339.349 141.621C339.595 142.304 339.697 143.031 339.649 143.755C339.546 145.267 338.88 146.684 337.781 147.727C336.682 148.77 335.231 149.362 333.716 149.386Z" fill="white"/>
<path d="M322.816 150.839C326.935 146.832 327.199 140.422 323.405 136.522C319.611 132.622 313.196 132.709 309.077 136.716C304.958 140.723 304.694 147.134 308.487 151.033C312.281 154.933 318.696 154.846 322.816 150.839Z" fill="#7D50DE"/>
<path opacity="0.3" d="M322.816 150.839C326.935 146.832 327.199 140.422 323.405 136.522C319.611 132.622 313.196 132.709 309.077 136.716C304.958 140.723 304.694 147.134 308.487 151.033C312.281 154.933 318.696 154.846 322.816 150.839Z" fill="#FAFAFA"/>
<path d="M299.008 221.37H329.73C331.244 221.347 332.695 220.755 333.794 219.712C334.893 218.669 335.56 217.251 335.662 215.74C335.71 215.014 335.608 214.287 335.362 213.603C335.116 212.919 334.731 212.294 334.231 211.766C333.731 211.238 333.128 210.819 332.459 210.536C331.79 210.252 331.069 210.11 330.342 210.119H299.631C298.116 210.139 296.664 210.729 295.563 211.77C294.463 212.811 293.793 214.228 293.689 215.74C293.642 216.465 293.745 217.192 293.992 217.876C294.238 218.559 294.623 219.185 295.122 219.713C295.622 220.242 296.224 220.661 296.893 220.946C297.561 221.232 298.282 221.376 299.008 221.37Z" fill="white"/>
<path d="M310.692 222.809C314.811 218.802 315.075 212.392 311.281 208.492C307.487 204.592 301.072 204.679 296.953 208.686C292.834 212.693 292.57 219.103 296.363 223.003C300.157 226.903 306.572 226.816 310.692 222.809Z" fill="#7D50DE"/>
<path opacity="0.7" d="M310.692 222.809C314.811 218.802 315.075 212.392 311.281 208.492C307.487 204.592 301.072 204.679 296.953 208.686C292.834 212.693 292.57 219.103 296.363 223.003C300.157 226.903 306.572 226.816 310.692 222.809Z" fill="#FAFAFA"/>
<path d="M327.784 257.363H297.034C296.307 257.368 295.587 257.224 294.918 256.939C294.25 256.654 293.647 256.234 293.148 255.705C292.649 255.177 292.264 254.552 292.017 253.868C291.77 253.184 291.667 252.457 291.714 251.732C291.819 250.22 292.488 248.803 293.589 247.762C294.689 246.721 296.141 246.131 297.656 246.111H328.407C329.133 246.102 329.854 246.244 330.523 246.528C331.192 246.812 331.796 247.23 332.295 247.758C332.795 248.286 333.18 248.912 333.426 249.595C333.672 250.279 333.775 251.007 333.726 251.732C333.624 253.245 332.956 254.664 331.855 255.708C330.754 256.751 329.301 257.342 327.784 257.363Z" fill="white"/>
<path d="M333.726 251.732C333.552 254.459 332.352 257.018 330.368 258.896C328.383 260.774 325.761 261.832 323.029 261.856C321.72 261.87 320.422 261.615 319.217 261.104C318.012 260.593 316.925 259.839 316.026 258.888C315.126 257.937 314.433 256.811 313.99 255.579C313.546 254.348 313.363 253.038 313.45 251.732C313.629 249.007 314.83 246.45 316.814 244.572C318.797 242.695 321.417 241.637 324.147 241.608C325.457 241.592 326.755 241.847 327.961 242.357C329.167 242.867 330.254 243.621 331.154 244.572C332.054 245.523 332.747 246.651 333.19 247.883C333.632 249.115 333.815 250.425 333.726 251.732Z" fill="#7D50DE"/>
<path d="M300.983 185.378H331.743C333.258 185.355 334.708 184.763 335.807 183.72C336.906 182.677 337.573 181.259 337.675 179.747C337.723 179.022 337.621 178.295 337.375 177.611C337.129 176.927 336.744 176.302 336.244 175.774C335.745 175.246 335.141 174.827 334.472 174.543C333.803 174.26 333.082 174.118 332.356 174.126H301.605C300.091 174.147 298.64 174.737 297.541 175.778C296.442 176.82 295.775 178.237 295.673 179.747C295.625 180.472 295.726 181.199 295.972 181.883C296.218 182.566 296.602 183.192 297.1 183.72C297.598 184.249 298.2 184.669 298.868 184.954C299.536 185.239 300.256 185.384 300.983 185.378Z" fill="white"/>
<path d="M295.693 179.747C295.604 181.053 295.787 182.362 296.229 183.594C296.671 184.826 297.363 185.952 298.262 186.903C299.161 187.854 300.247 188.609 301.452 189.119C302.656 189.63 303.954 189.886 305.262 189.871C307.994 189.847 310.616 188.79 312.601 186.912C314.585 185.034 315.785 182.474 315.96 179.747C316.048 178.442 315.866 177.132 315.424 175.9C314.981 174.669 314.289 173.542 313.39 172.591C312.491 171.64 311.405 170.886 310.201 170.375C308.996 169.864 307.699 169.608 306.39 169.623C303.658 169.647 301.036 170.705 299.052 172.583C297.067 174.461 295.867 177.021 295.693 179.747Z" fill="#7D50DE"/>
<path opacity="0.7" d="M295.693 179.747C295.604 181.053 295.787 182.362 296.229 183.594C296.671 184.826 297.363 185.952 298.262 186.903C299.161 187.854 300.247 188.609 301.452 189.119C302.656 189.63 303.954 189.886 305.262 189.871C307.994 189.847 310.616 188.79 312.601 186.912C314.585 185.034 315.785 182.474 315.96 179.747C316.048 178.442 315.866 177.132 315.424 175.9C314.981 174.669 314.289 173.542 313.39 172.591C312.491 171.64 311.405 170.886 310.201 170.375C308.996 169.864 307.699 169.608 306.39 169.623C303.658 169.647 301.036 170.705 299.052 172.583C297.067 174.461 295.867 177.021 295.693 179.747Z" fill="#FAFAFA"/>
<path d="M403.066 106.08H357.475C357.185 106.081 356.897 106.022 356.631 105.907C356.364 105.792 356.124 105.623 355.926 105.412C355.727 105.2 355.574 104.95 355.476 104.677C355.377 104.404 355.336 104.114 355.355 103.824C355.396 103.22 355.663 102.654 356.103 102.238C356.543 101.822 357.123 101.586 357.728 101.578H403.319C403.609 101.576 403.896 101.633 404.162 101.747C404.429 101.861 404.669 102.029 404.868 102.239C405.067 102.45 405.22 102.7 405.318 102.972C405.416 103.245 405.458 103.535 405.439 103.824C405.4 104.43 405.134 104.998 404.694 105.417C404.254 105.835 403.673 106.072 403.066 106.08Z" fill="white"/>
<path d="M387.876 113.957H357.047C356.756 113.959 356.468 113.901 356.2 113.787C355.933 113.673 355.691 113.504 355.491 113.293C355.292 113.081 355.138 112.831 355.039 112.557C354.94 112.283 354.899 111.992 354.917 111.701C354.959 111.097 355.226 110.531 355.666 110.115C356.105 109.699 356.685 109.463 357.29 109.455H388.128C388.419 109.453 388.706 109.511 388.973 109.624C389.24 109.738 389.481 109.906 389.68 110.116C389.88 110.327 390.034 110.576 390.134 110.849C390.233 111.121 390.275 111.412 390.258 111.701C390.217 112.308 389.949 112.876 389.507 113.294C389.066 113.712 388.483 113.949 387.876 113.957Z" fill="white"/>
<path d="M389.412 250.049H349.539C349.249 250.05 348.962 249.991 348.695 249.876C348.429 249.761 348.189 249.593 347.99 249.381C347.791 249.17 347.638 248.919 347.54 248.646C347.442 248.373 347.401 248.083 347.419 247.793C347.459 247.188 347.725 246.621 348.165 246.204C348.605 245.788 349.186 245.553 349.792 245.547H389.616C389.906 245.545 390.194 245.603 390.461 245.716C390.728 245.83 390.969 245.997 391.168 246.208C391.368 246.419 391.522 246.668 391.622 246.941C391.721 247.213 391.763 247.503 391.746 247.793C391.705 248.391 391.444 248.953 391.013 249.37C390.582 249.787 390.011 250.029 389.412 250.049Z" fill="white"/>
<path d="M368.834 257.917H349.179C348.889 257.919 348.602 257.861 348.335 257.747C348.068 257.634 347.827 257.466 347.627 257.256C347.428 257.045 347.273 256.796 347.174 256.523C347.075 256.25 347.032 255.96 347.05 255.67C347.091 255.067 347.358 254.5 347.798 254.084C348.237 253.668 348.817 253.432 349.423 253.424H369.106C369.396 253.422 369.684 253.48 369.951 253.594C370.218 253.707 370.458 253.875 370.658 254.085C370.858 254.296 371.012 254.545 371.111 254.818C371.211 255.091 371.253 255.381 371.236 255.67C371.194 256.279 370.923 256.85 370.477 257.267C370.031 257.684 369.444 257.916 368.834 257.917Z" fill="white"/>
<path d="M400.907 145.447H355.316C354.711 145.455 354.131 145.691 353.691 146.107C353.252 146.523 352.985 147.09 352.943 147.694C352.926 147.983 352.968 148.273 353.068 148.546C353.167 148.819 353.321 149.068 353.521 149.279C353.721 149.489 353.961 149.657 354.228 149.77C354.495 149.884 354.783 149.942 355.073 149.94H400.664C401.269 149.932 401.849 149.696 402.289 149.28C402.728 148.864 402.995 148.298 403.037 147.694C403.054 147.404 403.012 147.114 402.912 146.841C402.813 146.568 402.659 146.319 402.459 146.109C402.259 145.898 402.019 145.731 401.752 145.617C401.485 145.503 401.197 145.445 400.907 145.447Z" fill="white"/>
<path d="M386.583 137.57H355.754C355.149 137.578 354.569 137.814 354.129 138.23C353.69 138.646 353.423 139.212 353.381 139.816C353.363 140.106 353.404 140.396 353.502 140.669C353.6 140.943 353.753 141.193 353.952 141.404C354.151 141.616 354.391 141.784 354.657 141.899C354.924 142.014 355.211 142.073 355.501 142.073H386.339C386.946 142.062 387.526 141.824 387.965 141.406C388.404 140.989 388.671 140.421 388.712 139.816C388.731 139.526 388.69 139.236 388.591 138.962C388.492 138.689 388.338 138.439 388.138 138.228C387.938 138.017 387.697 137.85 387.429 137.737C387.161 137.623 386.873 137.567 386.583 137.57Z" fill="white"/>
<path d="M376.915 178.065H353.575C353.284 178.065 352.997 178.006 352.731 177.891C352.464 177.777 352.224 177.608 352.025 177.397C351.827 177.185 351.673 176.935 351.575 176.662C351.477 176.389 351.436 176.098 351.455 175.809C351.494 175.204 351.76 174.636 352.2 174.22C352.64 173.803 353.222 173.568 353.827 173.562H377.168C377.46 173.556 377.751 173.611 378.021 173.723C378.292 173.835 378.536 174.002 378.739 174.213C378.942 174.424 379.099 174.674 379.2 174.949C379.301 175.224 379.344 175.516 379.326 175.809C379.285 176.42 379.012 176.993 378.565 177.412C378.117 177.83 377.528 178.064 376.915 178.065Z" fill="white"/>
<path d="M399.118 178.065H385.347C385.056 178.067 384.768 178.009 384.5 177.894C384.232 177.78 383.991 177.612 383.791 177.4C383.591 177.188 383.437 176.938 383.339 176.664C383.24 176.39 383.199 176.099 383.217 175.809C383.259 175.205 383.526 174.638 383.965 174.222C384.405 173.806 384.985 173.57 385.59 173.562H399.371C399.66 173.56 399.947 173.618 400.214 173.732C400.48 173.846 400.721 174.013 400.919 174.224C401.118 174.435 401.272 174.684 401.37 174.957C401.468 175.229 401.509 175.519 401.491 175.809C401.449 176.413 401.183 176.981 400.743 177.399C400.304 177.816 399.724 178.054 399.118 178.065Z" fill="white"/>
<path d="M383.928 185.932H353.07C352.78 185.934 352.492 185.876 352.225 185.763C351.958 185.649 351.718 185.482 351.518 185.271C351.318 185.06 351.164 184.811 351.065 184.538C350.965 184.266 350.923 183.976 350.94 183.686C350.982 183.082 351.249 182.516 351.688 182.1C352.128 181.683 352.708 181.448 353.313 181.439H384.19C384.48 181.438 384.768 181.495 385.035 181.609C385.302 181.723 385.543 181.89 385.742 182.101C385.942 182.311 386.096 182.561 386.195 182.833C386.295 183.106 386.337 183.396 386.32 183.686C386.278 184.293 386.008 184.862 385.565 185.279C385.121 185.695 384.536 185.929 383.928 185.932Z" fill="white"/>
<path d="M345.289 289.494H292.774C292.366 289.504 291.96 289.427 291.583 289.27C291.206 289.112 290.866 288.878 290.585 288.581C290.305 288.284 290.09 287.931 289.954 287.545C289.819 287.16 289.766 286.75 289.798 286.343C289.857 285.497 290.231 284.703 290.847 284.119C291.463 283.536 292.276 283.205 293.124 283.192H345.64C346.048 283.183 346.454 283.259 346.831 283.417C347.208 283.574 347.548 283.809 347.828 284.106C348.109 284.403 348.324 284.755 348.459 285.141C348.595 285.526 348.648 285.936 348.615 286.343C348.559 287.19 348.186 287.986 347.569 288.57C346.953 289.154 346.139 289.484 345.289 289.494Z" fill="white"/>
<path d="M392.106 289.494H359.877C359.468 289.504 359.062 289.427 358.685 289.27C358.308 289.112 357.969 288.878 357.688 288.581C357.407 288.284 357.192 287.931 357.057 287.545C356.921 287.16 356.868 286.75 356.901 286.343C356.959 285.497 357.334 284.703 357.95 284.119C358.566 283.536 359.378 283.205 360.227 283.192H392.456C392.864 283.183 393.27 283.259 393.647 283.417C394.024 283.574 394.364 283.809 394.644 284.106C394.925 284.403 395.14 284.755 395.276 285.141C395.411 285.526 395.464 285.936 395.432 286.343C395.373 287.19 394.999 287.983 394.383 288.567C393.767 289.151 392.954 289.481 392.106 289.494Z" fill="white"/>
<path d="M332.16 300.483H292.19C291.782 300.493 291.376 300.416 290.999 300.259C290.622 300.102 290.282 299.867 290.002 299.57C289.721 299.273 289.506 298.92 289.37 298.535C289.235 298.149 289.182 297.74 289.214 297.332C289.271 296.485 289.644 295.69 290.261 295.106C290.877 294.522 291.691 294.192 292.54 294.181H332.5C332.909 294.172 333.315 294.248 333.692 294.406C334.069 294.563 334.409 294.798 334.689 295.095C334.97 295.392 335.185 295.745 335.32 296.13C335.456 296.516 335.509 296.925 335.476 297.332C335.42 298.178 335.048 298.972 334.434 299.555C333.819 300.139 333.008 300.47 332.16 300.483Z" fill="white"/>
<path d="M375.563 311.531H291.588C291.179 311.54 290.773 311.464 290.396 311.307C290.019 311.149 289.68 310.914 289.399 310.617C289.118 310.32 288.903 309.968 288.768 309.582C288.632 309.197 288.579 308.787 288.612 308.38C288.668 307.534 289.04 306.741 289.655 306.157C290.269 305.573 291.081 305.242 291.928 305.229H375.904C376.312 305.22 376.718 305.296 377.095 305.453C377.472 305.611 377.812 305.846 378.092 306.143C378.373 306.44 378.588 306.792 378.724 307.178C378.859 307.563 378.912 307.973 378.88 308.38C378.823 309.226 378.451 310.019 377.837 310.603C377.222 311.187 376.411 311.518 375.563 311.531Z" fill="white"/>
<path d="M364.866 217.432H351.368C350.763 217.44 350.183 217.676 349.743 218.092C349.303 218.508 349.036 219.074 348.995 219.678C348.978 219.968 349.02 220.258 349.119 220.531C349.219 220.803 349.373 221.053 349.573 221.263C349.772 221.474 350.013 221.641 350.28 221.755C350.547 221.869 350.835 221.926 351.125 221.925H364.623C365.228 221.916 365.808 221.681 366.248 221.264C366.688 220.848 366.955 220.282 366.996 219.678C367.013 219.388 366.971 219.098 366.872 218.826C366.772 218.553 366.618 218.304 366.418 218.093C366.219 217.882 365.978 217.715 365.711 217.601C365.444 217.488 365.156 217.43 364.866 217.432Z" fill="white"/>
<path d="M388.945 217.432H373.298C372.692 217.44 372.112 217.676 371.673 218.092C371.233 218.508 370.966 219.074 370.925 219.678C370.907 219.968 370.95 220.258 371.049 220.531C371.148 220.803 371.303 221.053 371.502 221.263C371.702 221.474 371.943 221.641 372.21 221.755C372.477 221.869 372.764 221.927 373.054 221.925H388.702C389.307 221.916 389.887 221.681 390.327 221.265C390.766 220.848 391.033 220.282 391.075 219.678C391.094 219.388 391.052 219.097 390.953 218.824C390.855 218.551 390.7 218.301 390.5 218.09C390.301 217.879 390.059 217.712 389.792 217.598C389.524 217.485 389.236 217.428 388.945 217.432Z" fill="white"/>
<path d="M382.633 209.554H351.805C351.199 209.561 350.618 209.795 350.178 210.212C349.738 210.629 349.471 211.196 349.432 211.801C349.413 212.091 349.455 212.381 349.553 212.654C349.651 212.927 349.804 213.177 350.003 213.389C350.202 213.6 350.442 213.769 350.708 213.884C350.975 213.999 351.262 214.058 351.552 214.057H382.39C382.996 214.046 383.576 213.809 384.016 213.391C384.455 212.973 384.722 212.406 384.763 211.801C384.78 211.511 384.738 211.221 384.639 210.948C384.539 210.676 384.385 210.426 384.185 210.216C383.986 210.005 383.745 209.838 383.478 209.724C383.211 209.61 382.924 209.553 382.633 209.554Z" fill="white"/>
</g>
<defs>
<clipPath id="clip0">
<rect width="438" height="438" fill="white"/>
</clipPath>
</defs>
</svg>
